F4_KNU1_A 367.22 208.654
F4_KNU1_B 344.211 218.555
F4_KNU2_A 381.849 203.98
F4_KNU3_A 393.037 201.282
F3_KNU1_A 337.091 204.298
F3_KNU1_B 320.741 217.576
F3_KNU2_A 348.707 197.177
F3_KNU3_A 357.385 193.013
F1_KNU1_A 252.111 222.796
F1_KNU1_B 273.87 232.442
F1_KNU2_A 244.243 225.08
F1_KNU3_A 241.982 233.238
F2_KNU1_A 292.01 204.836
F2_KNU1_B 295.77 222.497
F2_KNU2_A 294.304 204.622
F2_KNU3_A 298.654 211.507
TH_KNU1_A 358.635 262.742
TH_KNU1_B 319.031 269.07
TH_KNU2_A 383.478 260.267
TH_KNU3_A 407.088 255.735
PALM_POSITION 311.765 236.021
