F4_KNU1_A 25.6929 -69.3136 0.969971
F4_KNU1_B 21.8804 -27.7714 -2.15974
F4_KNU2_A 27.8119 -91.5564 6.31145
F4_KNU3_A 29.2691 -106.36 12.105
F3_KNU1_A -7.41662 -73.239 -10.2724
F3_KNU1_B 9.53674e-07 -25.6585 -4.31978
F3_KNU2_A -11.4844 -101.158 -11.4745
F3_KNU3_A -13.98 -119.419 -10.9297
F1_KNU1_A -39.7431 -25.3315 25.7636
F1_KNU1_B -39.1441 -5.80345 0.000289917
F1_KNU2_A -33.2223 -23.7703 44.1378
F1_KNU3_A -25.1738 -15.8289 58.299
F2_KNU1_A -37.9455 -56.8662 -1.21884
F2_KNU1_B -20.9311 -16.7797 -4.31984
F2_KNU2_A -47.5719 -80.7567 4.81036
F2_KNU3_A -53.4346 -96.0485 11.1016
TH_KNU1_A 34.8203 15.0461 28.6171
TH_KNU1_B 27.5746 54.8391 6.48042
TH_KNU2_A 17.5035 -4.30368 47.1396
TH_KNU3_A 1.16197 -13.7975 59.1487
PALM_POSITION 0 0 0
PALM_NORMAL -14.377 77.348 190.954
