F4_KNU1_A 417.683 225.803
F4_KNU1_B 377.362 242.86
F4_KNU2_A 443.717 223.436
F4_KNU3_A 463.244 227.11
F3_KNU1_A 371.96 202.356
F3_KNU1_B 345.217 235.598
F3_KNU2_A 392.261 186.758
F3_KNU3_A 408.048 180.108
F1_KNU1_A 251.601 239.915
F1_KNU1_B 277.901 241.17
F1_KNU2_A 237.862 246.673
F1_KNU3_A 227.155 258.461
F2_KNU1_A 314.438 212.649
F2_KNU1_B 310.027 234.608
F2_KNU2_A 319.219 206.268
F2_KNU3_A 323.686 207.499
TH_KNU1_A 380.493 297.06
TH_KNU1_B 335.534 285.135
TH_KNU2_A 383.669 312.822
TH_KNU3_A 384.245 325.381
PALM_POSITION 329.96 252.574
