F4_KNU1_A 27.7345 -69.186 0.543945
F4_KNU1_B 21.8803 -27.7716 -2.15965
F4_KNU2_A 30.9705 -90.6897 7.32455
F4_KNU3_A 33.1407 -104.285 15.0093
F3_KNU1_A -3.75694 -73.528 -8.23447
F3_KNU1_B 1.90735e-06 -25.6584 -4.31935
F3_KNU2_A -5.24705 -101.036 -5.91382
F3_KNU3_A -5.79725 -118.402 -1.78001
F1_KNU1_A -65.5124 -27.0205 6.52071
F1_KNU1_B -39.1441 -5.80342 4.57764e-05
F1_KNU2_A -78.9585 -38.3429 13.068
F1_KNU3_A -89.7588 -47.8298 20.8458
F2_KNU1_A -34.7418 -58.3615 -2.69984
F2_KNU1_B -20.9312 -16.7795 -4.31961
F2_KNU2_A -42.2034 -83.0224 3.18085
F2_KNU3_A -46.4903 -98.6083 9.79243
TH_KNU1_A 38.677 14.1725 25.9878
TH_KNU1_B 27.5749 54.8389 6.48059
TH_KNU2_A 23.1465 -6.74754 44.1451
TH_KNU3_A 12.1726 -20.9046 56.6089
PALM_POSITION 0 0 0
PALM_NORMAL 5.2587 61.7468 190.571
