F4_KNU1_A 28.1665 -68.6516 2.41423
F4_KNU1_B 21.8803 -27.7715 -2.15981
F4_KNU2_A 31.6229 -89.8263 9.82185
F4_KNU3_A 33.945 -103.284 17.677
F3_KNU1_A -3.36355 -73.4606 -7.25262
F3_KNU1_B 0 -25.6584 -4.31932
F3_KNU2_A -4.70701 -100.976 -4.93292
F3_KNU3_A -5.21751 -118.471 -1.136
F1_KNU1_A -66.7186 -26.9142 3.00443
F1_KNU1_B -39.1441 -5.80358 -7.62939e-05
F1_KNU2_A -81.488 -38.4996 6.47028
F1_KNU3_A -94.0504 -48.5677 10.8465
F2_KNU1_A -35.4226 -58.2092 -3.05571
F2_KNU1_B -20.9311 -16.7796 -4.32011
F2_KNU2_A -43.6606 -83.2124 1.23593
F2_KNU3_A -48.7237 -99.4731 6.07266
TH_KNU1_A 36.4439 14.9191 27.9788
TH_KNU1_B 27.5746 54.8391 6.48022
TH_KNU2_A 19.6083 -4.78411 46.501
TH_KNU3_A 7.50066 -17.9283 59.184
PALM_POSITION 0 0 0
PALM_NORMAL -14.401 64.2101 192.443
