F4_KNU1_A 360.421 279.9
F4_KNU1_B 344.333 239.484
F4_KNU2_A 369.281 302.132
F4_KNU3_A 375.312 317.257
F3_KNU1_A 333.612 289.837
F3_KNU1_B 322.149 242.434
F3_KNU2_A 340.96 316.722
F3_KNU3_A 345.99 333.468
F1_KNU1_A 263.355 264.148
F1_KNU1_B 280.061 234.582
F1_KNU2_A 256.207 279.941
F1_KNU3_A 251.513 293.056
F2_KNU1_A 299.94 283.509
F2_KNU1_B 299.535 239.174
F2_KNU2_A 301.722 309.062
F2_KNU3_A 303.655 324.712
TH_KNU1_A 365.788 195.184
TH_KNU1_B 329.791 162.439
TH_KNU2_A 381.307 224.718
TH_KNU3_A 399.685 238.689
PALM_POSITION 316.283 218.9
