F4_KNU1_A 28.3073 -68.2687 3.66248
F4_KNU1_B 21.8804 -27.7714 -2.1593
F4_KNU2_A 31.8394 -89.361 11.2138
F4_KNU3_A 34.2288 -102.951 18.858
F3_KNU1_A -2.9826 -73.307 -5.80281
F3_KNU1_B 0 -25.6586 -4.31978
F3_KNU2_A -4.15238 -100.704 -2.99484
F3_KNU3_A -4.58478 -118.166 0.897034
F1_KNU1_A -66.6806 -26.9051 3.18709
F1_KNU1_B -39.1441 -5.80342 0.000808716
F1_KNU2_A -81.4023 -38.4743 6.81267
F1_KNU3_A -93.8969 -48.5145 11.371
F2_KNU1_A -35.1086 -58.1606 -2.31197
F2_KNU1_B -20.9311 -16.7797 -4.3201
F2_KNU2_A -43.1195 -83.0618 2.48457
F2_KNU3_A -48.014 -99.2118 7.67139
TH_KNU1_A 36.1474 16.5078 30.3929
TH_KNU1_B 27.5745 54.839 6.4805
TH_KNU2_A 19.3557 -2.49115 49.6636
TH_KNU3_A 5.71476 -14.0549 62.5991
PALM_POSITION 0 0 0
PALM_NORMAL -20.2978 67.7736 191.441
