F4_KNU1_A 357.24 286.196
F4_KNU1_B 340.856 246.654
F4_KNU2_A 366.614 308.274
F4_KNU3_A 373.201 323.479
F3_KNU1_A 329.464 295.965
F3_KNU1_B 319.097 249.124
F3_KNU2_A 336.353 323.703
F3_KNU3_A 341.25 341.75
F1_KNU1_A 258.071 267.257
F1_KNU1_B 278.854 240.128
F1_KNU2_A 247.449 282.419
F1_KNU3_A 238.858 295.734
F2_KNU1_A 292.64 289.217
F2_KNU1_B 297.29 245.357
F2_KNU2_A 290.791 316.285
F2_KNU3_A 290.146 334.139
TH_KNU1_A 366.565 199.663
TH_KNU1_B 329.247 169.504
TH_KNU2_A 380.954 227.928
TH_KNU3_A 397.689 242.538
PALM_POSITION 314.26 225.561
