F4_KNU1_A 382.25 175.191
F4_KNU1_B 335.138 195.972
F4_KNU2_A 408.997 165.025
F4_KNU3_A 427.838 158.821
F3_KNU1_A 394.159 197.992
F3_KNU1_B 336.294 214.545
F3_KNU2_A 429.138 189.175
F3_KNU3_A 452.407 183.969
F1_KNU1_A 357.568 284.479
F1_KNU1_B 322.701 262.198
F1_KNU2_A 378.669 298.191
F1_KNU3_A 398.26 311.089
F2_KNU1_A 386.467 237.823
F2_KNU1_B 330.094 237.35
F2_KNU2_A 423.059 239.33
F2_KNU3_A 448.172 241.036
TH_KNU1_A 281.785 186.582
TH_KNU1_B 245.398 225.562
TH_KNU2_A 311.167 167.061
TH_KNU3_A 320.877 146.775
PALM_POSITION 308.06 226.759
