F4_KNU1_A 356.641 284.289
F4_KNU1_B 340.106 245.393
F4_KNU2_A 366.191 306.498
F4_KNU3_A 372.986 322.153
F3_KNU1_A 328.293 294.18
F3_KNU1_B 318.575 247.779
F3_KNU2_A 334.565 321.976
F3_KNU3_A 338.96 340.345
F1_KNU1_A 257.792 265.861
F1_KNU1_B 278.476 238.946
F1_KNU2_A 247.116 280.924
F1_KNU3_A 238.382 294.184
F2_KNU1_A 292.604 287.546
F2_KNU1_B 296.913 244.046
F2_KNU2_A 290.656 314.582
F2_KNU3_A 289.768 332.617
TH_KNU1_A 367.542 195.733
TH_KNU1_B 328.442 169.532
TH_KNU2_A 390.367 219.288
TH_KNU3_A 411.696 226.806
PALM_POSITION 313.694 224.596
