F4_KNU1_A -59.6567 192.419 -81.2977
F4_KNU1_B -40.9002 185.494 -43.2713
F4_KNU2_A -70.2952 194.523 -102.899
F4_KNU3_A -77.8341 194.929 -118.226
F3_KNU1_A -31.4775 195.492 -92.2767
F3_KNU1_B -19.0762 187.39 -46.409
F3_KNU2_A -39.1103 198.655 -119.486
F3_KNU3_A -44.3178 199.836 -137.504
F1_KNU1_A 44.3076 181.276 -67.5124
F1_KNU1_B 23.6469 180.708 -38.8229
F1_KNU2_A 55.25 180.056 -83.6778
F1_KNU3_A 64.476 177.836 -98.0675
F2_KNU1_A 5.57738 190.056 -87.8357
F2_KNU1_B 3.47958 186.287 -43.3647
F2_KNU2_A 6.41897 190.404 -115.523
F2_KNU3_A 6.72643 189.522 -134.183
TH_KNU1_A -66.5284 169.828 8.47172
TH_KNU1_B -24.9287 166.067 35.8045
TH_KNU2_A -91.9637 170.185 -14.2314
TH_KNU3_A -114.066 174.928 -20.2907
PALM_POSITION -12.5353 179.778 -22.7948
PALM_NORMAL -0.0312103 -0.991287 -0.127966
