F4_KNU1_A 381.962 173.15
F4_KNU1_B 335.582 195.877
F4_KNU2_A 408.468 161.743
F4_KNU3_A 427.243 154.601
F3_KNU1_A 393.934 195.71
F3_KNU1_B 336.675 214.304
F3_KNU2_A 428.762 185.534
F3_KNU3_A 452.052 179.366
F1_KNU1_A 357.772 284.068
F1_KNU1_B 322.925 261.722
F1_KNU2_A 378.846 297.826
F1_KNU3_A 398.404 310.773
F2_KNU1_A 386.698 236.308
F2_KNU1_B 330.401 236.965
F2_KNU2_A 423.33 237.027
F2_KNU3_A 448.548 238.166
TH_KNU1_A 282.843 186.762
TH_KNU1_B 245.785 225.308
TH_KNU2_A 311.064 165.786
TH_KNU3_A 319.552 144.964
PALM_POSITION 308.412 226.473
