F4_KNU1_A 263.764 252.127
F4_KNU1_B 313.164 243.781
F4_KNU2_A 233.944 258.6
F4_KNU3_A 212.096 264.211
F3_KNU1_A 254.568 220.285
F3_KNU1_B 311.572 221.123
F3_KNU2_A 218.906 221.433
F3_KNU3_A 194.598 223.164
F1_KNU1_A 293.35 168.804
F1_KNU1_B 323.553 189.249
F1_KNU2_A 276.773 159.445
F1_KNU3_A 262.315 152.623
F2_KNU1_A 265.51 191.664
F2_KNU1_B 317.139 201.862
F2_KNU2_A 233.013 187.296
F2_KNU3_A 211.068 185.498
TH_KNU1_A 373.092 286.718
TH_KNU1_B 405.868 251.584
TH_KNU2_A 343.879 311.099
TH_KNU3_A 335.285 332.489
PALM_POSITION 339.467 223.531
