F4_KNU1_A 357.785 284.085
F4_KNU1_B 340.69 245.681
F4_KNU2_A 367.765 306.291
F4_KNU3_A 374.921 322.091
F3_KNU1_A 329.262 294.075
F3_KNU1_B 319.144 247.986
F3_KNU2_A 335.837 322.015
F3_KNU3_A 340.47 340.632
F1_KNU1_A 258.189 265.806
F1_KNU1_B 278.917 238.92
F1_KNU2_A 247.507 280.826
F1_KNU3_A 238.785 294.023
F2_KNU1_A 293.483 287.744
F2_KNU1_B 297.443 244.146
F2_KNU2_A 291.703 314.977
F2_KNU3_A 290.904 333.215
TH_KNU1_A 367.497 196.962
TH_KNU1_B 329.123 169.547
TH_KNU2_A 391.519 219.357
TH_KNU3_A 413.227 225.741
PALM_POSITION 314.265 224.71
