F4_KNU1_A 381.567 171.477
F4_KNU1_B 335.773 195.682
F4_KNU2_A 407.918 159.249
F4_KNU3_A 426.657 151.576
F3_KNU1_A 393.396 193.768
F3_KNU1_B 336.767 214.143
F3_KNU2_A 428.034 182.531
F3_KNU3_A 451.271 175.69
F1_KNU1_A 357.443 284.37
F1_KNU1_B 322.589 261.385
F1_KNU2_A 378.467 298.508
F1_KNU3_A 397.907 311.783
F2_KNU1_A 386.537 235.723
F2_KNU1_B 330.319 236.729
F2_KNU2_A 423.173 236.31
F2_KNU3_A 448.389 237.416
TH_KNU1_A 283.778 186.59
TH_KNU1_B 245.342 223.824
TH_KNU2_A 311.577 165.333
TH_KNU3_A 319.979 144.51
PALM_POSITION 308.287 225.905
