F4_KNU1_A 358.556 284.291
F4_KNU1_B 340.973 246.283
F4_KNU2_A 368.896 306.379
F4_KNU3_A 376.344 322.13
F3_KNU1_A 330.161 294.533
F3_KNU1_B 319.448 248.756
F3_KNU2_A 337.182 322.419
F3_KNU3_A 342.157 341.042
F1_KNU1_A 259.162 266.903
F1_KNU1_B 279.114 239.763
F1_KNU2_A 249.222 281.921
F1_KNU3_A 241.401 294.948
F2_KNU1_A 294.266 288.663
F2_KNU1_B 297.709 245.018
F2_KNU2_A 292.847 315.846
F2_KNU3_A 292.313 333.992
TH_KNU1_A 364.966 200.512
TH_KNU1_B 328.8 169.587
TH_KNU2_A 387.551 223.813
TH_KNU3_A 408.494 232.078
PALM_POSITION 314.366 225.325
