F4_KNU1_A 404.051 216.22
F4_KNU1_B 369.038 248.966
F4_KNU2_A 427.495 198.013
F4_KNU3_A 446.165 185.835
F3_KNU1_A 356.771 206.654
F3_KNU1_B 335.063 246.142
F3_KNU2_A 373.102 181.778
F3_KNU3_A 385.905 165.02
F1_KNU1_A 231.533 253.217
F1_KNU1_B 269.927 261.145
F1_KNU2_A 208.718 251.537
F1_KNU3_A 187.761 252.446
F2_KNU1_A 292.748 224.316
F2_KNU1_B 300.259 250.133
F2_KNU2_A 288.121 208.811
F2_KNU3_A 285.16 199.172
TH_KNU1_A 399.36 291.913
TH_KNU1_B 343.957 298.673
TH_KNU2_A 439.703 288.355
TH_KNU3_A 474.911 280.894
PALM_POSITION 325.852 265.703
