F4_KNU1_A 366.235 276.511
F4_KNU1_B 348.782 236.882
F4_KNU2_A 376.388 299.686
F4_KNU3_A 383.592 316.208
F3_KNU1_A 338.308 287.204
F3_KNU1_B 326.55 240.17
F3_KNU2_A 346.249 315.985
F3_KNU3_A 351.91 335.061
F1_KNU1_A 267.669 265.488
F1_KNU1_B 285.033 235.03
F1_KNU2_A 259.826 282.632
F1_KNU3_A 254.331 297.554
F2_KNU1_A 304.587 283.002
F2_KNU1_B 304.061 237.904
F2_KNU2_A 306.467 311.259
F2_KNU3_A 308.535 329.841
TH_KNU1_A 370.348 195.927
TH_KNU1_B 334.082 166.519
TH_KNU2_A 386.836 224.846
TH_KNU3_A 405.775 237.766
PALM_POSITION 320.83 218.713
