F4_KNU1_A -69.7041 222.858 -68.266
F4_KNU1_B -51.1159 208.788 -32.179
F4_KNU2_A -80.3889 228.478 -89.2055
F4_KNU3_A -88.0184 231.082 -104.269
F3_KNU1_A -42.939 225.55 -79.8047
F3_KNU1_B -29.4008 209.698 -36.3453
F3_KNU2_A -51.7097 231.912 -106.096
F3_KNU3_A -57.8778 234.454 -123.664
F1_KNU1_A 29.3767 199.755 -64.9757
F1_KNU1_B 12.8408 198.016 -33.7697
F1_KNU2_A 37.1104 198.238 -82.8764
F1_KNU3_A 42.8052 195.153 -98.8499
F2_KNU1_A -9.79471 216.013 -78.7952
F2_KNU1_B -6.9213 206.111 -35.3216
F2_KNU2_A -12.8343 218.322 -106.233
F2_KNU3_A -15.5317 217.788 -124.714
TH_KNU1_A -71.732 181.662 9.53587
TH_KNU1_B -32.986 169.024 38.3592
TH_KNU2_A -89.5136 186.269 -19.1887
TH_KNU3_A -108.504 192.618 -31.3048
PALM_POSITION -22.3954 195.938 -15.853
PALM_NORMAL -0.130602 -0.92226 -0.363839
