F4_KNU1_A 412.93 179.044
F4_KNU1_B 380.547 219.791
F4_KNU2_A 434.549 156.081
F4_KNU3_A 451.723 140.308
F3_KNU1_A 370.405 169.89
F3_KNU1_B 348.273 217.985
F3_KNU2_A 387.548 140.812
F3_KNU3_A 401.191 121.857
F1_KNU1_A 254.995 222.938
F1_KNU1_B 285.835 238.501
F1_KNU2_A 237.983 216.781
F1_KNU3_A 223.439 213.571
F2_KNU1_A 316.386 187.702
F2_KNU1_B 314.895 225.001
F2_KNU2_A 319.907 166.19
F2_KNU3_A 323.947 153.334
TH_KNU1_A 407.771 271.942
TH_KNU1_B 354.122 298.621
TH_KNU2_A 438.1 254.732
TH_KNU3_A 469.025 239.626
PALM_POSITION 338.699 246.436
