F4_KNU1_A 278.808 227.626
F4_KNU1_B 327.825 228.614
F4_KNU2_A 248.066 230.131
F4_KNU3_A 225.043 233.837
F3_KNU1_A 266.136 204.383
F3_KNU1_B 323.468 211.035
F3_KNU2_A 229.265 204.623
F3_KNU3_A 203.914 207.24
F1_KNU1_A 293.891 182.343
F1_KNU1_B 328.81 193.142
F1_KNU2_A 274.672 181.274
F1_KNU3_A 258.298 183.647
F2_KNU1_A 272.224 191.137
F2_KNU1_B 325.903 198.553
F2_KNU2_A 238.066 192.704
F2_KNU3_A 215.405 197.112
TH_KNU1_A 385.206 272.074
TH_KNU1_B 415.683 253.302
TH_KNU2_A 348.57 283.012
TH_KNU3_A 329.554 293.572
PALM_POSITION 349.45 219.567
