F4_KNU1_A 29.154 -69.4461 -1.79439
F4_KNU1_B 21.8804 -27.7709 -2.15913
F4_KNU2_A 33.2646 -92.2633 1.09966
F4_KNU3_A 36.1537 -107.865 4.71844
F3_KNU1_A -0.0348053 -72.8482 -2.58594
F3_KNU1_B -7.62939e-06 -25.6582 -4.31937
F3_KNU2_A 0.535561 -99.7369 1.99197
F3_KNU3_A 1.23066 -116.768 6.92471
F1_KNU1_A -64.8053 -26.7013 8.75685
F1_KNU1_B -39.1443 -5.80337 0.000823975
F1_KNU2_A -77.1977 -37.4769 17.415
F1_KNU3_A -86.4763 -46.0988 27.4879
F2_KNU1_A -32.1052 -57.6099 2.89598
F2_KNU1_B -20.9312 -16.7795 -4.31929
F2_KNU2_A -37.6763 -81.0614 12.4058
F2_KNU3_A -40.6027 -95.4532 21.3679
TH_KNU1_A 56.2305 14.8562 8.11066
TH_KNU1_B 27.5742 54.8394 6.48032
TH_KNU2_A 65.2149 -15.6759 15.0261
TH_KNU3_A 78.103 -34.7146 16.1358
PALM_POSITION 0 0 0
PALM_NORMAL -66.8068 113.384 167.333
