F4_KNU1_A 272.349 225.798
F4_KNU1_B 323.219 224.869
F4_KNU2_A 241.222 229.675
F4_KNU3_A 218.294 234.507
F3_KNU1_A 260.207 210.12
F3_KNU1_B 319.222 210.628
F3_KNU2_A 223.597 214.73
F3_KNU3_A 199.103 220.517
F1_KNU1_A 293.597 193.344
F1_KNU1_B 327.284 197.714
F1_KNU2_A 275.8 196.086
F1_KNU3_A 261.165 201.845
F2_KNU1_A 268.99 200.956
F2_KNU1_B 322.691 200.819
F2_KNU2_A 236.908 209.364
F2_KNU3_A 217.079 219.182
TH_KNU1_A 386.138 260.693
TH_KNU1_B 418.902 243.467
TH_KNU2_A 348.421 273.545
TH_KNU3_A 327.326 283.469
PALM_POSITION 347.46 217.483
