F4_KNU1_A 23.2886 -66.0789 10.512
F4_KNU1_B 21.8804 -27.7715 -2.16023
F4_KNU2_A 24.057 -86.7827 19.2969
F4_KNU3_A 24.5856 -100.908 26.3786
F3_KNU1_A -5.95642 -68.5013 9.42979
F3_KNU1_B 0 -25.6587 -4.32034
F3_KNU2_A -9.05487 -92.7647 19.6396
F3_KNU3_A -10.8825 -108.216 27.4254
F1_KNU1_A -66.3619 -26.9868 4.11472
F1_KNU1_B -39.1441 -5.80336 3.05176e-05
F1_KNU2_A -78.7626 -37.6813 12.8569
F1_KNU3_A -86.6372 -45.4143 24.6056
F2_KNU1_A -39.0465 -55.1736 2.94531
F2_KNU1_B -20.9311 -16.7798 -4.32036
F2_KNU2_A -47.4537 -75.2174 16.4998
F2_KNU3_A -51.0625 -85.4503 29.7699
TH_KNU1_A 50.6985 15.2275 19.2263
TH_KNU1_B 27.5749 54.8393 6.48018
TH_KNU2_A 59.0555 -12.9764 31.4715
TH_KNU3_A 71.692 -30.9417 36.4118
PALM_POSITION 0 0 0
PALM_NORMAL -55.2697 27.297 249.448
