F4_KNU1_A 413.766 193.482
F4_KNU1_B 372.695 209.568
F4_KNU2_A 440.809 187.91
F4_KNU3_A 461.852 186.58
F3_KNU1_A 367.527 189.765
F3_KNU1_B 340.374 206.282
F3_KNU2_A 388.388 187.272
F3_KNU3_A 404.505 190.659
F1_KNU1_A 244.742 217.876
F1_KNU1_B 276.383 219.473
F1_KNU2_A 227.657 222.717
F1_KNU3_A 213.682 231.609
F2_KNU1_A 307.239 200.273
F2_KNU1_B 306.36 209.431
F2_KNU2_A 310.682 204.545
F2_KNU3_A 314.788 213.945
TH_KNU1_A 397.034 244.461
TH_KNU1_B 341.359 255.64
TH_KNU2_A 428.661 242.117
TH_KNU3_A 458.712 237.135
PALM_POSITION 329.017 224.563
