F4_KNU1_A -68.8478 211.708 -72.7571
F4_KNU1_B -45.971 214.802 -36.5239
F4_KNU2_A -81.6116 207.072 -92.752
F4_KNU3_A -90.4751 202.162 -106.509
F3_KNU1_A -40.0566 210.378 -86.4125
F3_KNU1_B -24.4142 216.493 -41.2329
F3_KNU2_A -49.8053 201.808 -111.714
F3_KNU3_A -56.3697 193.659 -127.323
F1_KNU1_A 35.6347 203.082 -65.7331
F1_KNU1_B 18.79 211.019 -35.6743
F1_KNU2_A 43.3859 195.151 -81.8441
F1_KNU3_A 48.9014 185.841 -95.2609
F2_KNU1_A -4.1921 206.647 -83.1613
F2_KNU1_B -1.69916 215.904 -39.5223
F2_KNU2_A -6.9989 195.079 -108.175
F2_KNU3_A -9.49187 184.469 -123.351
TH_KNU1_A -66.067 204.048 14.9288
TH_KNU1_B -24.83 204.516 43.0546
TH_KNU2_A -84.9961 197.238 -12.5997
TH_KNU3_A -102.692 195.611 -27.8297
PALM_POSITION -16.3071 211.635 -17.3785
PALM_NORMAL -0.0248553 -0.999593 -0.0140272
