F4_KNU1_A 31.0576 -67.6818 3.9258
F4_KNU1_B 21.8803 -27.7716 -2.15973
F4_KNU2_A 36.1669 -89.104 10.1373
F4_KNU3_A 39.712 -103.509 16.0661
F3_KNU1_A -0.141922 -71.2674 3.37129
F3_KNU1_B -3.8147e-06 -25.6584 -4.31929
F3_KNU2_A 0.536018 -96.3209 12.3972
F3_KNU3_A 1.37638 -111.58 20.6086
F1_KNU1_A -64.6656 -27.3865 7.73836
F1_KNU1_B -39.1439 -5.80305 0.000717163
F1_KNU2_A -77.48 -38.7988 15.0693
F1_KNU3_A -87.6071 -48.2693 23.5691
F2_KNU1_A -33.0041 -56.4013 5.52321
F2_KNU1_B -20.9311 -16.7794 -4.31955
F2_KNU2_A -39.058 -78.8878 16.5264
F2_KNU3_A -42.2795 -92.5694 26.3578
TH_KNU1_A 56.8312 15.3492 8.45009
TH_KNU1_B 27.5752 54.8389 6.48041
TH_KNU2_A 65.5042 -15.025 15.9873
TH_KNU3_A 79.0289 -33.6478 17.0337
PALM_POSITION 0 0 0
PALM_NORMAL 43.5439 61.2218 210.533
