F4_KNU1_A 410.006 208.522
F4_KNU1_B 373.81 249.416
F4_KNU2_A 432.956 184.66
F4_KNU3_A 450.569 167.574
F3_KNU1_A 370.406 188.022
F3_KNU1_B 342.084 240.409
F3_KNU2_A 390.021 154.818
F3_KNU3_A 404.54 131.937
F1_KNU1_A 251.76 211.928
F1_KNU1_B 277.037 247.899
F1_KNU2_A 236.807 191.442
F1_KNU3_A 222.983 173.119
F2_KNU1_A 313.76 190.373
F2_KNU1_B 308.152 240.761
F2_KNU2_A 318.278 157.303
F2_KNU3_A 321.949 134.271
TH_KNU1_A 391.309 315.762
TH_KNU1_B 336.76 337.1
TH_KNU2_A 420.257 298.176
TH_KNU3_A 453.002 286.575
PALM_POSITION 328.432 270.5
