F4_KNU1_A 28.7623 -69.8632 -4.15282
F4_KNU1_B 21.8805 -27.7711 -2.15953
F4_KNU2_A 32.668 -93.2253 -3.34319
F4_KNU3_A 35.4357 -109.465 -1.61143
F3_KNU1_A 1.06281 -73.4395 -6.20058
F3_KNU1_B 4.76837e-07 -25.6581 -4.31953
F3_KNU2_A 2.06557 -101.247 -5.10268
F3_KNU3_A 2.9349 -119.321 -3.14661
F1_KNU1_A -64.8101 -28.8664 3.72948
F1_KNU1_B -39.1441 -5.8037 -0.000335693
F1_KNU2_A -78.306 -41.446 8.01147
F1_KNU3_A -89.5534 -52.2807 13.3782
F2_KNU1_A -31.682 -59.1966 -2.5634
F2_KNU1_B -20.9311 -16.7796 -4.3199
F2_KNU2_A -37.6586 -84.8409 1.60229
F2_KNU3_A -41.2641 -101.6 6.10703
TH_KNU1_A 50.7384 12.2482 11.0251
TH_KNU1_B 27.5748 54.8388 6.4798
TH_KNU2_A 58.1121 -18.4942 18.4357
TH_KNU3_A 71.2319 -37.4512 19.2168
PALM_POSITION 0 0 0
PALM_NORMAL 5.47209 140.436 131.29
