F4_KNU1_A 284.148 220.003
F4_KNU1_B 324.028 229.654
F4_KNU2_A 258.02 216.217
F4_KNU3_A 237.687 214.761
F3_KNU1_A 272.039 195.153
F3_KNU1_B 319.548 212.183
F3_KNU2_A 239.933 186.907
F3_KNU3_A 216.832 182.766
F1_KNU1_A 288.637 177.126
F1_KNU1_B 321.19 195.318
F1_KNU2_A 269.822 170.257
F1_KNU3_A 252.913 166.533
F2_KNU1_A 273.37 181.596
F2_KNU1_B 320.529 200.364
F2_KNU2_A 241.255 173.395
F2_KNU3_A 218.472 170.032
TH_KNU1_A 367.085 274.104
TH_KNU1_B 396.729 263.318
TH_KNU2_A 334.757 278.668
TH_KNU3_A 319.165 285.467
PALM_POSITION 340.878 223.485
