F4_KNU1_A -44.6443 207.763 -87.0114
F4_KNU1_B -29.4458 194.933 -48.9301
F4_KNU2_A -54.8631 213.265 -108.213
F4_KNU3_A -63.0507 216.072 -122.944
F3_KNU1_A -26.6935 181.941 -97.0628
F3_KNU1_B -11.6617 181.972 -51.2663
F3_KNU2_A -38.406 179.412 -122.851
F3_KNU3_A -47.5627 176.416 -138.986
F1_KNU1_A 26.3225 129.889 -66.3682
F1_KNU1_B 18.3596 152.003 -39.9513
F1_KNU2_A 27.4542 116.108 -80.201
F1_KNU3_A 26.0959 103.178 -91.5178
F2_KNU1_A -1.75971 156.035 -89.3257
F2_KNU1_B 5.57049 167.737 -46.8332
F2_KNU2_A -10.426 145.805 -113.567
F2_KNU3_A -18.3142 137.506 -128.332
TH_KNU1_A -49.8015 211.537 0.68423
TH_KNU1_B -19.6743 188.625 33.2295
TH_KNU2_A -68.7696 218.881 -26.6797
TH_KNU3_A -82.7496 228.414 -42.8478
PALM_POSITION -8.48209 177.63 -26.1785
PALM_NORMAL -0.650811 -0.748868 0.125068
