F4_KNU1_A 33.3555 -68.9693 -5.05396
F4_KNU1_B 21.8805 -27.7712 -2.15965
F4_KNU2_A 39.9029 -91.7379 -4.16528
F4_KNU3_A 44.5459 -107.445 -2.01668
F3_KNU1_A 1.04537 -71.4264 2.84258
F3_KNU1_B 0 -25.6585 -4.31956
F3_KNU2_A 2.3437 -96.802 11.1572
F3_KNU3_A 3.54772 -112.446 18.7176
F1_KNU1_A -64.9947 -26.9622 7.86394
F1_KNU1_B -39.1441 -5.80382 0.000244141
F1_KNU2_A -77.862 -38.0832 15.5128
F1_KNU3_A -87.901 -47.2259 24.4406
F2_KNU1_A -32.1367 -56.6894 5.39461
F2_KNU1_B -20.931 -16.7799 -4.32002
F2_KNU2_A -37.6394 -79.2975 16.4064
F2_KNU3_A -40.4882 -93.0147 26.2828
TH_KNU1_A 57.9058 15.4932 4.64713
TH_KNU1_B 27.5742 54.8392 6.47995
TH_KNU2_A 70.4923 -14.958 8.16011
TH_KNU3_A 82.9646 -34.4362 8.40416
PALM_POSITION 0 0 0
PALM_NORMAL -80.7668 69.6293 163.181
