F4_KNU1_A 387.544 190.297
F4_KNU1_B 351.984 223.9
F4_KNU2_A 412.109 172.455
F4_KNU3_A 432.041 161.116
F3_KNU1_A 341.474 204.139
F3_KNU1_B 318.218 227.873
F3_KNU2_A 360.961 194.017
F3_KNU3_A 377.04 190.321
F1_KNU1_A 221.651 260.672
F1_KNU1_B 256.432 256.274
F1_KNU2_A 203.039 267.914
F1_KNU3_A 187.799 278.152
F2_KNU1_A 281.737 227.663
F2_KNU1_B 284.506 239.009
F2_KNU2_A 283.897 227.563
F2_KNU3_A 287.919 232.242
TH_KNU1_A 386.229 250.968
TH_KNU1_B 334.511 280.478
TH_KNU2_A 418.476 234.604
TH_KNU3_A 446.152 219.527
PALM_POSITION 312.14 249.913
