F4_KNU1_A 352.988 279.886
F4_KNU1_B 334.078 245.884
F4_KNU2_A 362.353 297.333
F4_KNU3_A 368.232 308.643
F3_KNU1_A 324.278 291.362
F3_KNU1_B 313.107 250.308
F3_KNU2_A 330.184 312.47
F3_KNU3_A 333.714 324.775
F1_KNU1_A 254.319 275.056
F1_KNU1_B 269.608 243.959
F1_KNU2_A 246.524 291.778
F1_KNU3_A 240.196 306.019
F2_KNU1_A 291.037 289.696
F2_KNU1_B 290.498 248.252
F2_KNU2_A 291.702 312.828
F2_KNU3_A 292.306 326.911
TH_KNU1_A 352.944 195.975
TH_KNU1_B 313.306 167.151
TH_KNU2_A 371.865 223.39
TH_KNU3_A 391.076 236.081
PALM_POSITION 304.876 226.332
