F4_KNU1_A 400.185 258.415
F4_KNU1_B 360.709 242.729
F4_KNU2_A 424.761 273.31
F4_KNU3_A 443.036 287.395
F3_KNU1_A 352.13 258.914
F3_KNU1_B 328.509 235.619
F3_KNU2_A 368.384 282.36
F3_KNU3_A 380.04 303.042
F1_KNU1_A 233.694 240.144
F1_KNU1_B 262.283 238.432
F1_KNU2_A 216.491 244.257
F1_KNU3_A 200.549 250.465
F2_KNU1_A 293.374 249.282
F2_KNU1_B 293.822 233.367
F2_KNU2_A 293.758 267.348
F2_KNU3_A 294.425 284.267
TH_KNU1_A 380.842 259.02
TH_KNU1_B 325.118 268.984
TH_KNU2_A 414.062 256.413
TH_KNU3_A 446.193 250.47
PALM_POSITION 315.315 247.221
