F4_KNU1_A 370.574 172.768
F4_KNU1_B 325.593 193.832
F4_KNU2_A 394.893 161.777
F4_KNU3_A 411.457 154.513
F3_KNU1_A 383.146 208.065
F3_KNU1_B 328.395 219.432
F3_KNU2_A 413.864 201.672
F3_KNU3_A 433.317 197.619
F1_KNU1_A 353.371 291.639
F1_KNU1_B 317.442 271.415
F1_KNU2_A 372.616 301.818
F1_KNU3_A 389.012 310.049
F2_KNU1_A 374.48 250.076
F2_KNU1_B 323.724 246.586
F2_KNU2_A 403.53 251.731
F2_KNU3_A 421.776 252.599
TH_KNU1_A 270.598 169.002
TH_KNU1_B 233.806 213.559
TH_KNU2_A 303.185 147.141
TH_KNU3_A 318.661 124.734
PALM_POSITION 300.03 227.685
