F4_KNU1_A -50.6505 248.172 -60.1837
F4_KNU1_B -37.9748 222.583 -28.0852
F4_KNU2_A -58.5161 261.185 -78.9717
F4_KNU3_A -64.472 269.566 -92.6173
F3_KNU1_A -24.3212 239.598 -73.4243
F3_KNU1_B -17.4111 215.537 -32.2346
F3_KNU2_A -29.6044 252.172 -98.3762
F3_KNU3_A -33.7075 259.61 -115.139
F1_KNU1_A 27.7338 191.275 -66.3067
F1_KNU1_B 16.4115 187.557 -33.0163
F1_KNU2_A 32.6952 192.464 -85.1883
F1_KNU3_A 36.1637 192.919 -102.066
F2_KNU1_A 1.76957 216.747 -74.9133
F2_KNU1_B 1.65589 203.06 -32.382
F2_KNU2_A 0.0705112 223.231 -101.792
F2_KNU3_A -1.96918 226.556 -120.064
TH_KNU1_A -70.083 199.925 8.71696
TH_KNU1_B -42.7861 164.647 31.1243
TH_KNU2_A -82.9156 220.053 -15.6283
TH_KNU3_A -95.433 236.436 -26.7033
PALM_POSITION -18.0917 196.041 -15.5671
PALM_NORMAL -0.454925 -0.688535 -0.564768
