F4_KNU1_A 378.875 148.431
F4_KNU1_B 359.707 203.306
F4_KNU2_A 392.192 115.789
F4_KNU3_A 403.083 91.9549
F3_KNU1_A 338.7 154.219
F3_KNU1_B 330.076 212.427
F3_KNU2_A 346.719 116.634
F3_KNU3_A 353.72 90.3403
F1_KNU1_A 257.447 235.33
F1_KNU1_B 280.859 254.157
F1_KNU2_A 244.864 224.612
F1_KNU3_A 234.225 215.052
F2_KNU1_A 297.701 189.667
F2_KNU1_B 302.466 231.178
F2_KNU2_A 297.331 162.256
F2_KNU3_A 298.71 143.094
TH_KNU1_A 403.719 247.382
TH_KNU1_B 367.708 302.112
TH_KNU2_A 423.515 209.748
TH_KNU3_A 441.975 181.233
PALM_POSITION 332.498 246.66
