F4_KNU1_A 283.93 193.506
F4_KNU1_B 327.462 200.744
F4_KNU2_A 255.158 190.589
F4_KNU3_A 232.683 189.355
F3_KNU1_A 274.387 160.276
F3_KNU1_B 325.529 178.178
F3_KNU2_A 239.362 150.745
F3_KNU3_A 213.975 145.268
F1_KNU1_A 292.9 128.002
F1_KNU1_B 327.969 153.809
F1_KNU2_A 272.177 115.061
F1_KNU3_A 253.111 104.71
F2_KNU1_A 277.894 139.963
F2_KNU1_B 327.723 162.345
F2_KNU2_A 243.59 127.975
F2_KNU3_A 218.979 121.137
TH_KNU1_A 361.279 257.98
TH_KNU1_B 389.662 243.917
TH_KNU2_A 327.698 260.192
TH_KNU3_A 311.041 268.589
PALM_POSITION 343.682 192.444
