F4_KNU1_A 30.4226 -68.6091 1.06909
F4_KNU1_B 21.8804 -27.7712 -2.15964
F4_KNU2_A 35.2264 -91.0288 4.83284
F4_KNU3_A 38.604 -106.478 8.60945
F3_KNU1_A 1.21443 -72.4151 -0.712296
F3_KNU1_B 0 -25.6583 -4.31969
F3_KNU2_A 2.29279 -99.3786 3.58675
F3_KNU3_A 3.19705 -116.783 7.58578
F1_KNU1_A -60.5815 -32.2849 4.86282
F1_KNU1_B -39.1441 -5.80305 0.000457764
F1_KNU2_A -71.8365 -46.7338 9.19571
F1_KNU3_A -81.2623 -59.2483 14.1741
F2_KNU1_A -31.2996 -57.6959 3.23203
F2_KNU1_B -20.9311 -16.7791 -4.31927
F2_KNU2_A -36.9763 -82.0777 10.8195
F2_KNU3_A -40.3678 -97.8498 17.4545
TH_KNU1_A 52.9742 13.3834 10.6563
TH_KNU1_B 27.5748 54.8388 6.47995
TH_KNU2_A 62.0761 -17.0007 17.8708
TH_KNU3_A 75.8072 -35.5254 18.6975
PALM_POSITION 0 0 0
PALM_NORMAL 17.5905 174.69 182.648
