F4_KNU1_A 365.462 289.436
F4_KNU1_B 343.54 248.709
F4_KNU2_A 377.858 313.463
F4_KNU3_A 386.473 330.762
F3_KNU1_A 334.734 300.555
F3_KNU1_B 320.096 250.823
F3_KNU2_A 343.915 331.391
F3_KNU3_A 350.153 352.152
F1_KNU1_A 257.034 277.063
F1_KNU1_B 274.044 243.153
F1_KNU2_A 248.31 296.798
F1_KNU3_A 241.281 314.575
F2_KNU1_A 295.298 295.511
F2_KNU1_B 295.68 247.144
F2_KNU2_A 295.832 326.491
F2_KNU3_A 296.61 347.343
TH_KNU1_A 363.313 208.308
TH_KNU1_B 326.239 174.969
TH_KNU2_A 382.391 237.676
TH_KNU3_A 402.946 250.827
PALM_POSITION 313.154 228.074
