F4_KNU1_A 366.159 291.019
F4_KNU1_B 344.485 249.534
F4_KNU2_A 377.852 314.439
F4_KNU3_A 385.685 330.756
F3_KNU1_A 335.531 303.253
F3_KNU1_B 321.318 252.143
F3_KNU2_A 343.975 333.55
F3_KNU3_A 349.489 353.294
F1_KNU1_A 255.842 277.056
F1_KNU1_B 274.412 243.005
F1_KNU2_A 246.304 296.257
F1_KNU3_A 238.605 313.099
F2_KNU1_A 295.745 297.324
F2_KNU1_B 296.766 248.188
F2_KNU2_A 295.616 327.307
F2_KNU3_A 295.805 346.738
TH_KNU1_A 365.113 202.257
TH_KNU1_B 325.921 168.247
TH_KNU2_A 385.223 231.558
TH_KNU3_A 406.459 244.04
PALM_POSITION 313.718 227.06
