F4_KNU1_A 259.659 218.181
F4_KNU1_B 314.617 201.302
F4_KNU2_A 227.048 229.551
F4_KNU3_A 203.608 238.511
F3_KNU1_A 248.621 178.993
F3_KNU1_B 313.278 173.612
F3_KNU2_A 208.756 184.457
F3_KNU3_A 182.085 189.281
F1_KNU1_A 288.095 110.543
F1_KNU1_B 326.352 132.316
F1_KNU2_A 266.741 101.05
F1_KNU3_A 248.062 94.6078
F2_KNU1_A 260.56 142.45
F2_KNU1_B 319.579 149.35
F2_KNU2_A 223.918 141.645
F2_KNU3_A 199.828 142.992
TH_KNU1_A 371.776 245.755
TH_KNU1_B 413.123 209.373
TH_KNU2_A 333.184 266.12
TH_KNU3_A 315.673 288.098
PALM_POSITION 343.345 175.887
