F4_KNU1_A 31.6777 -68.1594 1.77655
F4_KNU1_B 21.8804 -27.7716 -2.1595
F4_KNU2_A 37.176 -90.1691 6.29213
F4_KNU3_A 41.0285 -105.21 10.7897
F3_KNU1_A 0.908291 -72.2379 0.0241699
F3_KNU1_B 7.62939e-06 -25.6583 -4.31924
F3_KNU2_A 1.85041 -98.9731 5.02785
F3_KNU3_A 2.68771 -116.141 9.62761
F1_KNU1_A -62.8932 -30.2079 5.27769
F1_KNU1_B -39.144 -5.80305 0.000350952
F1_KNU2_A -75.2737 -43.457 10.2729
F1_KNU3_A -85.5339 -54.8407 16.1331
F2_KNU1_A -32.4196 -57.2375 3.73488
F2_KNU1_B -20.9313 -16.7795 -4.32008
F2_KNU2_A -38.6287 -81.1011 12.1617
F2_KNU3_A -42.2758 -96.3467 19.618
TH_KNU1_A 55.6079 14.2889 7.39288
TH_KNU1_B 27.5752 54.8388 6.48004
TH_KNU2_A 67.7143 -16.0184 12.0202
TH_KNU3_A 83.8132 -32.956 10.4447
PALM_POSITION 7.62939e-06 0 0
PALM_NORMAL 47.3182 106.451 232.563
