F4_KNU1_A 379.92 118.797
F4_KNU1_B 329.616 133.247
F4_KNU2_A 407.015 113.604
F4_KNU3_A 425.367 111.572
F3_KNU1_A 394.972 138.359
F3_KNU1_B 331.083 147.406
F3_KNU2_A 431.551 135.658
F3_KNU3_A 454.858 135.274
F1_KNU1_A 357.711 211.864
F1_KNU1_B 314.826 190.077
F1_KNU2_A 382.765 226.148
F1_KNU3_A 405.152 240.025
F2_KNU1_A 387.044 173.139
F2_KNU1_B 323.974 166.552
F2_KNU2_A 425.351 180.581
F2_KNU3_A 450.019 187.248
TH_KNU1_A 273.731 130.943
TH_KNU1_B 226.934 163.365
TH_KNU2_A 309.927 117.86
TH_KNU3_A 325.715 101.214
PALM_POSITION 298.65 160.266
