F4_KNU1_A 364.98 290.163
F4_KNU1_B 341.478 250.662
F4_KNU2_A 378.368 311.255
F4_KNU3_A 387.806 325.351
F3_KNU1_A 333.753 300.535
F3_KNU1_B 318.061 253.244
F3_KNU2_A 343.658 326.497
F3_KNU3_A 350.469 342.52
F1_KNU1_A 261.337 268.542
F1_KNU1_B 276.137 241.405
F1_KNU2_A 255.384 282.215
F1_KNU3_A 251.694 293.194
F2_KNU1_A 297.332 290.922
F2_KNU1_B 294.979 248.553
F2_KNU2_A 300.648 313.886
F2_KNU3_A 303.747 327.476
TH_KNU1_A 369.889 195.966
TH_KNU1_B 328.659 161.98
TH_KNU2_A 391.995 225.769
TH_KNU3_A 412.767 240.901
PALM_POSITION 312.932 226.366
