F4_KNU1_A 410.3 143.004
F4_KNU1_B 369.323 159.734
F4_KNU2_A 437.795 135.876
F4_KNU3_A 459.526 132.62
F3_KNU1_A 363.686 148.112
F3_KNU1_B 336.821 162.433
F3_KNU2_A 384.459 142.352
F3_KNU3_A 400.828 140.536
F1_KNU1_A 246.453 194.873
F1_KNU1_B 276.152 186.096
F1_KNU2_A 230.521 203.985
F1_KNU3_A 217.333 215.279
F2_KNU1_A 303.474 171.429
F2_KNU1_B 303.816 171.274
F2_KNU2_A 306.229 178.247
F2_KNU3_A 309.954 187.057
TH_KNU1_A 398.665 183.541
TH_KNU1_B 345.965 204.885
TH_KNU2_A 432.816 173.147
TH_KNU3_A 463.563 160.135
PALM_POSITION 328.689 180.598
