F4_KNU1_A -64.6667 232.192 -83.0453
F4_KNU1_B -42.4482 238.401 -46.8024
F4_KNU2_A -77.3677 226.04 -102.668
F4_KNU3_A -86.3745 220.242 -115.979
F3_KNU1_A -35.5767 225.776 -94.6614
F3_KNU1_B -20.6403 236.692 -50.1526
F3_KNU2_A -45.4161 215.37 -119.228
F3_KNU3_A -52.3384 206.565 -134.318
F1_KNU1_A 33.5972 207.782 -68.9374
F1_KNU1_B 20.953 225.805 -41.2681
F1_KNU2_A 37.8378 194.544 -82.6963
F1_KNU3_A 39.6047 181.114 -93.3562
F2_KNU1_A -2.56336 215.553 -87.729
F2_KNU1_B 1.62376 233.123 -46.863
F2_KNU2_A -7.41921 199.203 -109.558
F2_KNU3_A -11.7062 185.859 -121.913
TH_KNU1_A -66.8143 233.579 3.83167
TH_KNU1_B -27.5192 232.152 34.5827
TH_KNU2_A -86.8331 227.733 -23.1421
TH_KNU3_A -105.225 228.362 -37.6018
PALM_POSITION -14.6704 232.823 -25.4999
PALM_NORMAL -0.166795 -0.984091 0.0611972
