F4_KNU1_A 357.628 286.897
F4_KNU1_B 338.936 245.369
F4_KNU2_A 367.869 306.841
F4_KNU3_A 374.292 317.812
F3_KNU1_A 326.568 296.99
F3_KNU1_B 315.402 247.252
F3_KNU2_A 335.709 321.099
F3_KNU3_A 342.281 332.432
F1_KNU1_A 272.884 261.933
F1_KNU1_B 273.183 235.772
F1_KNU2_A 280.916 267.236
F1_KNU3_A 290.901 265.976
F2_KNU1_A 298.398 282.861
F2_KNU1_B 292.289 242.304
F2_KNU2_A 307.368 294.748
F2_KNU3_A 314.407 295.256
TH_KNU1_A 364.722 199.471
TH_KNU1_B 330.001 160.674
TH_KNU2_A 378.141 231.231
TH_KNU3_A 393.903 249.395
PALM_POSITION 311.397 221.38
