F4_KNU1_A 31.6951 -65.2533 9.82654
F4_KNU1_B 21.8804 -27.7717 -2.16037
F4_KNU2_A 34.1686 -69.0698 32.5838
F4_KNU3_A 33.1323 -60.227 48.4468
F3_KNU1_A 1.60713 -69.0016 9.10805
F3_KNU1_B 9.53674e-07 -25.6586 -4.32004
F3_KNU2_A 5.87861 -73.3359 35.7588
F3_KNU3_A 8.76887 -63.0155 52.7122
F1_KNU1_A -44.1871 -20.0893 29.0877
F1_KNU1_B -39.1441 -5.80357 3.05176e-05
F1_KNU2_A -35.7092 -15.6437 46.6487
F1_KNU3_A -24.6185 -6.20799 57.3285
F2_KNU1_A -24.228 -44.7812 25.1304
F2_KNU1_B -20.9312 -16.7801 -4.32065
F2_KNU2_A -18.8916 -41.4641 52.2843
F2_KNU3_A -13.1869 -30.3667 67.8609
TH_KNU1_A 44.7574 16.6708 26.8631
TH_KNU1_B 27.5746 54.8389 6.48006
TH_KNU2_A 46.8103 -9.30922 44.16
TH_KNU3_A 51.8574 -27.3805 54.9065
PALM_POSITION 9.53674e-07 0 0
PALM_NORMAL 10.5188 130.348 210.452
