F4_KNU1_A 275.973 202.049
F4_KNU1_B 330.074 191.977
F4_KNU2_A 256.183 222.952
F4_KNU3_A 259.199 234.906
F3_KNU1_A 266.413 172.831
F3_KNU1_B 329.21 169.377
F3_KNU2_A 249.391 200.952
F3_KNU3_A 258.4 217.199
F1_KNU1_A 301.746 162.118
F1_KNU1_B 338.475 143.689
F1_KNU2_A 299.292 184.752
F1_KNU3_A 307.332 203.351
F2_KNU1_A 285.035 177.347
F2_KNU1_B 334.315 152.754
F2_KNU2_A 281.854 206.32
F2_KNU3_A 291.606 223.144
TH_KNU1_A 356.03 245.495
TH_KNU1_B 413.434 226.046
TH_KNU2_A 313.243 248.582
TH_KNU3_A 284.294 250.315
PALM_POSITION 354.085 180.551
