F4_KNU1_A 416.411 172.965
F4_KNU1_B 377.191 192.661
F4_KNU2_A 417.581 203.199
F4_KNU3_A 403.3 229.302
F3_KNU1_A 365.471 147.487
F3_KNU1_B 344.941 183.503
F3_KNU2_A 370.555 182.777
F3_KNU3_A 365.152 215.139
F1_KNU1_A 266.16 191.434
F1_KNU1_B 279.616 190.388
F1_KNU2_A 273.878 217.5
F1_KNU3_A 286.815 243.115
F2_KNU1_A 315.583 178.067
F2_KNU1_B 310.779 183.385
F2_KNU2_A 319.913 218.549
F2_KNU3_A 321.404 250.405
TH_KNU1_A 395.276 275.935
TH_KNU1_B 342.993 271.582
TH_KNU2_A 426.961 279.33
TH_KNU3_A 453.523 281.998
PALM_POSITION 332.182 211.631
