F4_KNU1_A 391.851 137.191
F4_KNU1_B 345.72 161.8
F4_KNU2_A 413.733 147.696
F4_KNU3_A 418.565 164.678
F3_KNU1_A 405.753 152.639
F3_KNU1_B 346.076 175.044
F3_KNU2_A 435.813 163.54
F3_KNU3_A 442.075 179.716
F1_KNU1_A 377.806 234.716
F1_KNU1_B 334.316 219.083
F1_KNU2_A 396.639 247.512
F1_KNU3_A 399.524 254.767
F2_KNU1_A 400.201 189.699
F2_KNU1_B 340.06 194.953
F2_KNU2_A 425.635 206.356
F2_KNU3_A 426.384 221.268
TH_KNU1_A 307.641 190.32
TH_KNU1_B 264.728 214.261
TH_KNU2_A 340.671 181.378
TH_KNU3_A 360.637 173.449
PALM_POSITION 320.634 194.853
