F4_KNU1_A 420.759 175.553
F4_KNU1_B 377.677 206.494
F4_KNU2_A 444.442 175.018
F4_KNU3_A 456.995 186.674
F3_KNU1_A 369.993 150.121
F3_KNU1_B 344.216 197.662
F3_KNU2_A 388.41 139.09
F3_KNU3_A 400.212 145.258
F1_KNU1_A 243.164 183.882
F1_KNU1_B 277.241 205.631
F1_KNU2_A 229.372 187.266
F1_KNU3_A 224.905 202.427
F2_KNU1_A 307.864 158.159
F2_KNU1_B 309.1 197.974
F2_KNU2_A 309.49 154.535
F2_KNU3_A 311.958 167.284
TH_KNU1_A 401.76 290.635
TH_KNU1_B 345.024 285.042
TH_KNU2_A 437.279 295.598
TH_KNU3_A 468.159 299.284
PALM_POSITION 331.967 225.897
