F4_KNU1_A 415.336 178.814
F4_KNU1_B 373.953 210.32
F4_KNU2_A 442.129 164.732
F4_KNU3_A 462.64 157.848
F3_KNU1_A 368.167 156.87
F3_KNU1_B 340.444 202.866
F3_KNU2_A 388.685 130.889
F3_KNU3_A 404.459 115.41
F1_KNU1_A 239.394 196.024
F1_KNU1_B 273.857 212.46
F1_KNU2_A 221.595 195.157
F1_KNU3_A 208.41 201.386
F2_KNU1_A 305.741 166.651
F2_KNU1_B 305.385 203.972
F2_KNU2_A 307.654 150.029
F2_KNU3_A 310.037 144.209
TH_KNU1_A 393.238 289.279
TH_KNU1_B 342.837 280.909
TH_KNU2_A 424.353 297.354
TH_KNU3_A 457.569 301.931
PALM_POSITION 328.832 228.839
