F4_KNU1_A 368.286 153.138
F4_KNU1_B 317.867 166.876
F4_KNU2_A 396.104 148.106
F4_KNU3_A 415.165 146.085
F3_KNU1_A 379.78 174.992
F3_KNU1_B 319.036 184.696
F3_KNU2_A 414.849 172.344
F3_KNU3_A 436.994 172.228
F1_KNU1_A 344.551 256.016
F1_KNU1_B 305.487 232.638
F1_KNU2_A 367.329 270.333
F1_KNU3_A 387.34 283.383
F2_KNU1_A 371.488 211.963
F2_KNU1_B 312.773 207.343
F2_KNU2_A 406.95 217.793
F2_KNU3_A 429.361 223.092
TH_KNU1_A 271.209 167.444
TH_KNU1_B 226.478 201.325
TH_KNU2_A 307.483 156.024
TH_KNU3_A 325.286 139.896
PALM_POSITION 290.345 198.612
