F4_KNU1_A -62.933 212.425 -71.0542
F4_KNU1_B -46.2558 214.392 -31.5097
F4_KNU2_A -72.1364 208.555 -93.0664
F4_KNU3_A -78.481 204.301 -108.349
F3_KNU1_A -36.5634 214.062 -81.7557
F3_KNU1_B -24.5373 216.583 -35.1478
F3_KNU2_A -44.0915 208.668 -108.642
F3_KNU3_A -49.2232 203.121 -125.848
F1_KNU1_A 35.6396 204.558 -59.1173
F1_KNU1_B 18.4277 210.214 -28.7523
F1_KNU2_A 43.709 198.327 -75.809
F1_KNU3_A 49.6456 190.78 -90.1232
F2_KNU1_A -2.45789 209.447 -76.9257
F2_KNU1_B -1.90263 215.663 -32.684
F2_KNU2_A -3.86748 200.876 -103.231
F2_KNU3_A -5.35047 192.772 -120
TH_KNU1_A -65.9142 194.845 14.1638
TH_KNU1_B -28.1211 193.61 46.7509
TH_KNU2_A -83.0626 191.085 -15.0647
TH_KNU3_A -101.754 192.32 -29.094
PALM_POSITION -17.3326 208.585 -11.8563
PALM_NORMAL -0.0242311 -0.988901 -0.146583
