F4_KNU1_A 361.319 289.098
F4_KNU1_B 343.034 248.586
F4_KNU2_A 371.678 311.759
F4_KNU3_A 378.872 327.326
F3_KNU1_A 332.173 299.205
F3_KNU1_B 320.423 250.716
F3_KNU2_A 340.338 326.353
F3_KNU3_A 346.038 342.247
F1_KNU1_A 271.608 266.714
F1_KNU1_B 277.765 239.732
F1_KNU2_A 275.97 273.13
F1_KNU3_A 283.334 272.567
F2_KNU1_A 300.822 287.909
F2_KNU1_B 297.547 246.138
F2_KNU2_A 306.843 301.029
F2_KNU3_A 311.689 301.5
TH_KNU1_A 351.637 206.514
TH_KNU1_B 331.533 166.282
TH_KNU2_A 352.198 233.76
TH_KNU3_A 358.919 251.103
PALM_POSITION 315.35 225.524
