F4_KNU1_A -62.2519 216.761 -83.5717
F4_KNU1_B -43.3719 211.29 -45.3698
F4_KNU2_A -72.8456 216.192 -105.289
F4_KNU3_A -80.1783 213.562 -120.496
F3_KNU1_A -32.9596 209.145 -94.4566
F3_KNU1_B -21.6216 214.481 -47.9136
F3_KNU2_A -39.0873 185.727 -109.38
F3_KNU3_A -40.7183 167.134 -107.193
F1_KNU1_A 23.8625 185.897 -62.7091
F1_KNU1_B 21.1294 211.429 -38.4002
F1_KNU2_A 17.9376 167.261 -63.0824
F1_KNU3_A 10.1627 153.754 -55.7193
F2_KNU1_A -4.16667 181.423 -72.8469
F2_KNU1_B 0.821663 215.209 -44.0384
F2_KNU2_A -8.63131 154.389 -68.7676
F2_KNU3_A -11.201 139.8 -57.3822
TH_KNU1_A -47.159 174.852 -4.29382
TH_KNU1_B -29.2037 199.095 35.4758
TH_KNU2_A -46.0839 156.262 -32.8553
TH_KNU3_A -49.7688 143.917 -52.3941
PALM_POSITION -15.5017 209.163 -23.5696
PALM_NORMAL 0.0411305 -0.997859 -0.0508564
