F4_KNU1_A 408.753 174.097
F4_KNU1_B 372.41 207.952
F4_KNU2_A 432.898 157.203
F4_KNU3_A 451.862 147.416
F3_KNU1_A 356.166 248.263
F3_KNU1_B 338.905 202.91
F3_KNU2_A 358.255 295.818
F3_KNU3_A 355.23 318.074
F1_KNU1_A 279.62 252.236
F1_KNU1_B 274.313 215.345
F1_KNU2_A 294.98 278.822
F1_KNU3_A 308.24 293.627
F2_KNU1_A 315.173 253.059
F2_KNU1_B 304.571 205.564
F2_KNU2_A 322.99 295.981
F2_KNU3_A 325.909 314.789
TH_KNU1_A 375.489 279.984
TH_KNU1_B 347.51 268.24
TH_KNU2_A 367.084 293.531
TH_KNU3_A 363.245 304.072
PALM_POSITION 329.579 225.755
