F4_KNU1_A 31.6797 -69.1308 -2.95518
F4_KNU1_B 21.8804 -27.7717 -2.16077
F4_KNU2_A 37.2414 -91.5876 0.161362
F4_KNU3_A 41.1349 -106.708 4.45428
F3_KNU1_A 5.16856 -36.0083 40.0602
F3_KNU1_B 9.53674e-07 -25.6586 -4.32016
F3_KNU2_A 10.1449 -15.1245 61.9585
F3_KNU3_A 12.7143 3.22185 68.1568
F1_KNU1_A -33.995 -11.438 33.084
F1_KNU1_B -39.144 -5.80354 -1.52588e-05
F1_KNU2_A -22.0778 0.331291 45.0204
F1_KNU3_A -11.3833 13.8248 48.0954
F2_KNU1_A -16.5005 -25.8991 37.0373
F2_KNU1_B -20.9311 -16.7798 -4.32027
F2_KNU2_A -7.79741 -6.18207 57.5125
F2_KNU3_A -2.13478 11.4184 63.1286
TH_KNU1_A 36.803 17.5343 31.6024
TH_KNU1_B 27.5747 54.8388 6.47989
TH_KNU2_A 21.5028 -1.87592 51.4867
TH_KNU3_A 11.8106 -15.6408 65.1943
PALM_POSITION -4.76837e-07 7.62939e-06 0
PALM_NORMAL 7.85101 99.8667 200.564
