F4_KNU1_A 419.907 200.03
F4_KNU1_B 380.071 214.488
F4_KNU2_A 442.839 201.877
F4_KNU3_A 458.075 209.745
F3_KNU1_A 369.784 187.43
F3_KNU1_B 347.347 204.644
F3_KNU2_A 376.618 222.176
F3_KNU3_A 373.911 256.937
F1_KNU1_A 283.103 239.866
F1_KNU1_B 280.927 209.637
F1_KNU2_A 293.827 269.813
F1_KNU3_A 303.233 288.773
F2_KNU1_A 319.051 241.384
F2_KNU1_B 312.639 203.394
F2_KNU2_A 319.985 287.559
F2_KNU3_A 318.879 309.546
TH_KNU1_A 372.096 285.18
TH_KNU1_B 345.047 285.343
TH_KNU2_A 356.576 286.536
TH_KNU3_A 346.46 287.535
PALM_POSITION 334.26 230.443
