F4_KNU1_A -70.2293 202.775 -85.7011
F4_KNU1_B -49.6774 207.275 -48.2426
F4_KNU2_A -79.4228 193.899 -106.217
F4_KNU3_A -84.3012 184.538 -119.651
F3_KNU1_A -40.6902 207.567 -97.5419
F3_KNU1_B -28.7895 213.929 -51.269
F3_KNU2_A -42.2922 182.476 -110.827
F3_KNU3_A -39.9334 164.159 -107.356
F1_KNU1_A 11.8551 187.17 -68.1262
F1_KNU1_B 14.7606 214.38 -45.7327
F1_KNU2_A 6.20871 169.936 -60.8021
F1_KNU3_A 1.44859 160.737 -47.0243
F2_KNU1_A -10.2167 182.605 -77.4519
F2_KNU1_B -6.30234 216.681 -48.8205
F2_KNU2_A -9.57191 156.991 -66.9207
F2_KNU3_A -8.07277 146.456 -51.5634
TH_KNU1_A -43.5705 166.791 -20.3729
TH_KNU1_B -26.2957 176.907 25.3547
TH_KNU2_A -31.9467 159.863 -51.6683
TH_KNU3_A -25.1935 155.02 -73.5468
PALM_POSITION -19.7294 203.46 -29.6661
PALM_NORMAL 0.149132 -0.936788 -0.316525
