F4_KNU1_A -71.0493 205.202 -85.614
F4_KNU1_B -49.0509 207.718 -48.7967
F4_KNU2_A -81.1506 197.71 -106.255
F4_KNU3_A -86.737 189.424 -120.113
F3_KNU1_A -39.2693 217.675 -98.341
F3_KNU1_B -28.0879 214.24 -51.5814
F3_KNU2_A -45.2028 211.872 -125.539
F3_KNU3_A -48.584 204.26 -142.385
F1_KNU1_A 10.7136 186.231 -68.7537
F1_KNU1_B 15.5379 213.461 -46.7189
F1_KNU2_A 4.9513 169.611 -60.2025
F1_KNU3_A 0.746485 161.236 -45.7361
F2_KNU1_A -10.1946 182.747 -78.3025
F2_KNU1_B -5.52037 216.383 -49.2664
F2_KNU2_A -9.5917 157.187 -67.6394
F2_KNU3_A -7.9631 146.567 -52.3539
TH_KNU1_A -42.7337 165.118 -24.7923
TH_KNU1_B -25.1878 170.819 21.591
TH_KNU2_A -31.1463 160.766 -56.5619
TH_KNU3_A -24.4613 157.749 -78.7865
PALM_POSITION -18.9161 201.822 -31.0868
PALM_NORMAL 0.127035 -0.909041 -0.39687
