F4_KNU1_A -72.0606 208.844 -83.6242
F4_KNU1_B -48.0754 208.654 -47.9809
F4_KNU2_A -84.5237 205.217 -104.013
F4_KNU3_A -92.6224 200.678 -118.357
F3_KNU1_A -37.9287 219.502 -97.7008
F3_KNU1_B -26.9161 214.359 -51.058
F3_KNU2_A -44.3315 218.26 -125.379
F3_KNU3_A -48.4493 215.275 -143.47
F1_KNU1_A 10.5393 184.691 -68.5098
F1_KNU1_B 16.7093 211.9 -46.787
F1_KNU2_A 4.19428 168.524 -59.5132
F1_KNU3_A -0.141792 160.717 -44.7703
F2_KNU1_A -10.6127 182.435 -78.2736
F2_KNU1_B -4.25323 215.63 -49.0521
F2_KNU2_A -10.8263 157 -67.3005
F2_KNU3_A -9.36444 146.71 -51.774
TH_KNU1_A -40.1606 166.276 -25.1132
TH_KNU1_B -24.6988 170.911 22.1226
TH_KNU2_A -26.7599 161.664 -56.1237
TH_KNU3_A -19.4876 158.537 -78.148
PALM_POSITION -17.9524 201.611 -30.6742
PALM_NORMAL 0.086437 -0.913556 -0.397421
