F4_KNU1_A 370.147 288.547
F4_KNU1_B 346.36 251.407
F4_KNU2_A 383.106 309.735
F4_KNU3_A 391.869 324.607
F3_KNU1_A 333.319 302.896
F3_KNU1_B 324.283 253.991
F3_KNU2_A 338.914 331.952
F3_KNU3_A 342.67 350.85
F1_KNU1_A 289.334 269.896
F1_KNU1_B 280.736 248.014
F1_KNU2_A 298.219 261.239
F1_KNU3_A 304.094 247.359
F2_KNU1_A 310.495 280.154
F2_KNU1_B 301.19 251.169
F2_KNU2_A 313.933 268.458
F2_KNU3_A 314.133 253.494
TH_KNU1_A 340.189 228.594
TH_KNU1_B 328.306 182.416
TH_KNU2_A 325.764 256.867
TH_KNU3_A 317.593 276.739
PALM_POSITION 317.208 232.799
