F4_KNU1_A -72.4916 211.465 -82.9809
F4_KNU1_B -48.023 209.059 -47.7492
F4_KNU2_A -85.8762 210.764 -103.095
F4_KNU3_A -95.078 209.14 -117.399
F3_KNU1_A -37.2353 218.313 -97.783
F3_KNU1_B -26.6697 213.901 -50.9622
F3_KNU2_A -43.5305 218.058 -125.513
F3_KNU3_A -47.6935 216.438 -143.766
F1_KNU1_A 11.2118 183.972 -70.0117
F1_KNU1_B 16.839 209.915 -46.6537
F1_KNU2_A 3.66784 167.967 -61.6773
F1_KNU3_A -1.69346 160.752 -46.97
F2_KNU1_A -11.543 183.155 -80.0496
F2_KNU1_B -3.97279 214.372 -48.9942
F2_KNU2_A -12.9789 157.587 -69.4855
F2_KNU3_A -11.9834 147.687 -53.6714
TH_KNU1_A -39.5604 167.506 -24.6413
TH_KNU1_B -25.9825 172.059 23.1779
TH_KNU2_A -25.0098 161.89 -54.9604
TH_KNU3_A -16.7336 158.14 -76.5282
PALM_POSITION -18.1621 201.29 -30.2998
PALM_NORMAL 0.0518662 -0.924855 -0.376767
