F4_KNU1_A 422 187.571
F4_KNU1_B 377.294 212.227
F4_KNU2_A 450.859 174.75
F4_KNU3_A 473.176 166.636
F3_KNU1_A 362.723 170.015
F3_KNU1_B 344.066 204.985
F3_KNU2_A 376.558 149.772
F3_KNU3_A 387.218 137.147
F1_KNU1_A 283.985 244.042
F1_KNU1_B 277.742 215.789
F1_KNU2_A 297.953 272.462
F1_KNU3_A 308.221 288.567
F2_KNU1_A 321.133 239.185
F2_KNU1_B 309.169 206.809
F2_KNU2_A 325.565 285.47
F2_KNU3_A 325.083 306.721
TH_KNU1_A 366.325 283.043
TH_KNU1_B 344.956 291.174
TH_KNU2_A 345.293 282.661
TH_KNU3_A 331.722 281.799
PALM_POSITION 332.062 233.349
