F4_KNU1_A -69.0882 213.313 -82.2045
F4_KNU1_B -46.3054 211.197 -45.842
F4_KNU2_A -81.5117 211.63 -102.869
F4_KNU3_A -89.9932 208.891 -117.446
F3_KNU1_A -34.8363 218.145 -96.0075
F3_KNU1_B -24.6478 214.426 -49.0432
F3_KNU2_A -41.2388 215.681 -123.604
F3_KNU3_A -45.5908 211.72 -141.451
F1_KNU1_A 13.1049 183.306 -69.7808
F1_KNU1_B 18.4454 207.398 -44.4557
F1_KNU2_A 3.96475 167.642 -62.4569
F1_KNU3_A -2.58391 161.111 -47.9116
F2_KNU1_A -11.4727 183.15 -78.5569
F2_KNU1_B -1.98272 213.298 -46.977
F2_KNU2_A -14.8617 158.006 -67.4351
F2_KNU3_A -14.6039 148.904 -51.1201
TH_KNU1_A -37.7472 171.666 -22.8756
TH_KNU1_B -27.2303 174.049 25.8634
TH_KNU2_A -22.7185 165.101 -52.7678
TH_KNU3_A -11.772 160.48 -72.9309
PALM_POSITION -17.1416 201.627 -28.1103
PALM_NORMAL -0.0136935 -0.933129 -0.359282
