F4_KNU1_A 415.558 191.359
F4_KNU1_B 376.412 211.89
F4_KNU2_A 440.176 185.639
F4_KNU3_A 458.489 185.601
F3_KNU1_A 360.435 170.176
F3_KNU1_B 343.002 205.739
F3_KNU2_A 374.018 155.43
F3_KNU3_A 384.602 150.428
F1_KNU1_A 279.725 241.828
F1_KNU1_B 277.286 218.632
F1_KNU2_A 295.204 270.093
F1_KNU3_A 307.37 286.088
F2_KNU1_A 319.724 233.745
F2_KNU1_B 308.294 208.676
F2_KNU2_A 326.334 280.352
F2_KNU3_A 327.009 301.942
TH_KNU1_A 362.066 279.512
TH_KNU1_B 347.302 291.593
TH_KNU2_A 337.893 278.885
TH_KNU3_A 317.353 278.948
PALM_POSITION 332.133 234.376
