F4_KNU1_A 366.598 292.558
F4_KNU1_B 349.428 252.553
F4_KNU2_A 376.161 314.825
F4_KNU3_A 382.804 330.291
F3_KNU1_A 337.015 304.678
F3_KNU1_B 327.585 257.393
F3_KNU2_A 343.248 333.908
F3_KNU3_A 347.678 353.667
F1_KNU1_A 298.135 281.22
F1_KNU1_B 285.702 254.49
F1_KNU2_A 307.597 281.477
F1_KNU3_A 314.4 273.997
F2_KNU1_A 303.728 301.626
F2_KNU1_B 304.997 256.493
F2_KNU2_A 310.331 319.545
F2_KNU3_A 316.528 319.913
TH_KNU1_A 342.417 227.334
TH_KNU1_B 329.282 181.482
TH_KNU2_A 340.654 258.757
TH_KNU3_A 335.885 279.079
PALM_POSITION 320.161 235.73
