F4_KNU1_A -71.0496 200.595 -81.4829
F4_KNU1_B -49.8091 202.087 -44.1683
F4_KNU2_A -82.8213 196.802 -102.249
F4_KNU3_A -90.9551 192.503 -116.647
F3_KNU1_A -41.0013 214.945 -95.7607
F3_KNU1_B -28.6788 203.878 -50.4952
F3_KNU2_A -48.8425 218.798 -122.822
F3_KNU3_A -54.309 219.811 -140.772
F1_KNU1_A 2.48501 175.021 -75.1313
F1_KNU1_B 14.5817 196.435 -49.7269
F1_KNU2_A -5.27817 157.079 -75.7464
F1_KNU3_A -10.7685 142.37 -68.6329
F2_KNU1_A -1.27154 206.073 -95.2275
F2_KNU1_B -5.94353 202.411 -50.944
F2_KNU2_A 0.0527571 201.88 -122.578
F2_KNU3_A 0.0202136 195.535 -140.152
TH_KNU1_A -48.5939 168.915 -10.4702
TH_KNU1_B -22.4275 179.258 30.7621
TH_KNU2_A -52.3127 157.529 -42.3926
TH_KNU3_A -50.1162 148.852 -64.0173
PALM_POSITION -18.7813 195.233 -28.4576
PALM_NORMAL -0.0667356 -0.984803 -0.160343
