F4_KNU1_A 270.856 246.637
F4_KNU1_B 323.835 232.329
F4_KNU2_A 240.627 256.901
F4_KNU3_A 219.561 265.242
F3_KNU1_A 261.367 217.473
F3_KNU1_B 321.363 208.769
F3_KNU2_A 226.192 226.229
F3_KNU3_A 203.725 233.761
F1_KNU1_A 297.868 162.788
F1_KNU1_B 331.991 175.536
F1_KNU2_A 279.735 159.683
F1_KNU3_A 264.601 159.597
F2_KNU1_A 272.478 189.685
F2_KNU1_B 326.241 188.686
F2_KNU2_A 240.977 195.109
F2_KNU3_A 221.34 201.073
TH_KNU1_A 378.206 272.921
TH_KNU1_B 418.328 239.479
TH_KNU2_A 339.353 290.185
TH_KNU3_A 319.883 308.681
PALM_POSITION 349.786 211.034
