Epoch 0
Training Loss 3415.66748047
Test Loss 3583.98161985
Epoch 1
Training Loss 3122.03833008
Test Loss 3366.26957081
Epoch 2
Training Loss 2765.19311523
Test Loss 3309.47747108
Epoch 3
Training Loss 2522.77880859
Test Loss 2774.68925029
Epoch 4
Training Loss 2462.49121094
Test Loss 2599.69851013
Epoch 5
Training Loss 2405.12768555
Test Loss 2384.37718538
Epoch 6
Training Loss 2262.65185547
Test Loss 2562.21963848
Epoch 7
Training Loss 2181.04101562
Test Loss 2985.2974176
Epoch 8
Training Loss 2079.47241211
Test Loss 2342.66746773
Epoch 9
Training Loss 2041.3371582
Test Loss 2268.4157266
Epoch 10
Training Loss 2035.46350098
Test Loss 2753.56685685
Epoch 11
Training Loss 1911.44433594
Test Loss 2086.39207542
Epoch 12
Training Loss 1809.17358398
Test Loss 1996.26170303
Epoch 13
Training Loss 1716.54101562
Test Loss 2053.0775267
Epoch 14
Training Loss 1664.35742188
Test Loss 2218.57843472
Epoch 15
Training Loss 1571.14331055
Test Loss 2638.14366633
Epoch 16
Training Loss 1497.31115723
Test Loss 2083.69235767
Epoch 17
Training Loss 1412.52880859
Test Loss 1970.78434375
Epoch 18
Training Loss 1347.3704834
Test Loss 1716.6629277
Epoch 19
Training Loss 1324.56005859
Test Loss 1634.68276369
Epoch 20
Training Loss 1235.47094727
Test Loss 1612.85974136
Epoch 21
Training Loss 1248.91711426
Test Loss 1563.82132942
Epoch 22
Training Loss 1189.44018555
Test Loss 1514.577559
Epoch 23
Training Loss 1167.60449219
Test Loss 1507.97258162
Epoch 24
Training Loss 1149.49707031
Test Loss 1480.22119847
Epoch 25
Training Loss 1103.41137695
Test Loss 1767.12657529
Epoch 26
Training Loss 1058.46142578
Test Loss 1749.24181737
Epoch 27
Training Loss 1039.4543457
Test Loss 2088.25233933
Epoch 28
Training Loss 1022.45397949
Test Loss 2119.41080916
Epoch 29
Training Loss 1011.421875
Test Loss 2327.11171034
Epoch 30
Training Loss 968.847717285
Test Loss 1644.50436099
Epoch 31
Training Loss 934.099975586
Test Loss 1372.41402085
Epoch 32
Training Loss 890.073791504
Test Loss 1370.06159649
Epoch 33
Training Loss 862.302612305
Test Loss 1353.70396437
Epoch 34
Training Loss 850.325317383
Test Loss 1217.92532344
Epoch 35
Training Loss 832.159057617
Test Loss 1170.98378586
Epoch 36
Training Loss 829.608398438
Test Loss 1212.0999886
Epoch 37
Training Loss 814.15814209
Test Loss 1132.25052535
Epoch 38
Training Loss 785.709472656
Test Loss 1164.54055001
Epoch 39
Training Loss 782.760986328
Test Loss 1112.8685582
Epoch 40
Training Loss 804.952941895
Test Loss 1087.38151357
Epoch 41
Training Loss 772.138671875
Test Loss 1121.39633656
Epoch 42
Training Loss 747.901245117
Test Loss 1126.51880734
Epoch 43
Training Loss 725.646057129
Test Loss 1092.91092077
Epoch 44
Training Loss 730.599365234
Test Loss 1101.7811198
Epoch 45
Training Loss 722.944213867
Test Loss 1189.17818968
Epoch 46
Training Loss 708.112609863
Test Loss 1056.64115521
Epoch 47
Training Loss 692.45703125
Test Loss 1068.95728187
Epoch 48
Training Loss 676.520202637
Test Loss 1105.31083774
Epoch 49
Training Loss 680.972595215
Test Loss 1075.12357881
Epoch 50
Training Loss 646.695800781
Test Loss 1018.94348312
Epoch 51
Training Loss 646.747375488
Test Loss 1028.6786478
Epoch 52
Training Loss 624.807739258
Test Loss 1000.79797002
Epoch 53
Training Loss 630.452697754
Test Loss 997.441641003
Epoch 54
Training Loss 594.693908691
Test Loss 996.918913368
Epoch 55
Training Loss 596.160888672
Test Loss 1003.74177154
Epoch 56
Training Loss 592.086242676
Test Loss 976.926886011
Epoch 57
Training Loss 569.350708008
Test Loss 988.203521611
Epoch 58
Training Loss 581.819091797
Test Loss 978.736616347
Epoch 59
Training Loss 563.967407227
Test Loss 989.199749148
Epoch 60
Training Loss 541.767211914
Test Loss 1002.58736947
Epoch 61
Training Loss 528.861022949
Test Loss 1010.43503014
Epoch 62
Training Loss 529.820800781
Test Loss 958.332959976
Epoch 63
Training Loss 528.500366211
Test Loss 948.005144911
Epoch 64
Training Loss 503.90246582
Test Loss 958.138152625
Epoch 65
Training Loss 528.01776123
Test Loss 963.837499786
Epoch 66
Training Loss 480.903015137
Test Loss 962.138278279
Epoch 67
Training Loss 475.944091797
Test Loss 951.149478156
Epoch 68
Training Loss 472.884979248
Test Loss 941.853116109
Epoch 69
Training Loss 469.703216553
Test Loss 937.478658803
Epoch 70
Training Loss 495.856170654
Test Loss 955.789157391
Epoch 71
Training Loss 465.461364746
Test Loss 902.449444615
Epoch 72
Training Loss 447.513153076
Test Loss 951.493808157
Epoch 73
Training Loss 445.680969238
Test Loss 927.590644808
Epoch 74
Training Loss 444.993652344
Test Loss 914.284889022
Epoch 75
Training Loss 437.048095703
Test Loss 930.122546141
Epoch 76
Training Loss 403.510101318
Test Loss 902.276757167
Epoch 77
Training Loss 396.809509277
Test Loss 950.818222446
Epoch 78
Training Loss 433.502441406
Test Loss 933.515275288
Epoch 79
Training Loss 394.798797607
Test Loss 899.16269817
Epoch 80
Training Loss 395.011138916
Test Loss 950.66963355
Epoch 81
Training Loss 413.351928711
Test Loss 907.102647912
Epoch 82
Training Loss 397.642028809
Test Loss 905.484172443
Epoch 83
Training Loss 391.310424805
Test Loss 940.849904532
Epoch 84
Training Loss 368.075012207
Test Loss 1066.72993278
Epoch 85
Training Loss 387.822021484
Test Loss 968.28106762
Epoch 86
Training Loss 382.677459717
Test Loss 984.486703343
Epoch 87
Training Loss 384.436828613
Test Loss 954.997181092
Epoch 88
Training Loss 370.923522949
Test Loss 873.350584026
Epoch 89
Training Loss 364.347412109
Test Loss 884.775706521
Epoch 90
Training Loss 355.393249512
Test Loss 884.351371779
Epoch 91
Training Loss 338.234008789
Test Loss 901.925181604
Epoch 92
Training Loss 367.272186279
Test Loss 879.826111604
Epoch 93
Training Loss 355.5234375
Test Loss 858.677820403
Epoch 94
Training Loss 346.882171631
Test Loss 888.563101425
Epoch 95
Training Loss 348.919006348
Test Loss 875.805387936
Epoch 96
Training Loss 351.763427734
Test Loss 873.090675018
Epoch 97
Training Loss 350.614379883
Test Loss 897.759451396
Epoch 98
Training Loss 346.139556885
Test Loss 869.239698105
Epoch 99
Training Loss 353.855560303
Test Loss 847.344162334
Epoch 100
Training Loss 353.928100586
Test Loss 852.485868789
Epoch 101
Training Loss 327.115753174
Test Loss 873.169003939
Epoch 102
Training Loss 340.109741211
Test Loss 881.100441369
Epoch 103
Training Loss 332.713562012
Test Loss 879.947302177
Epoch 104
Training Loss 327.867797852
Test Loss 859.149667344
Epoch 105
Training Loss 329.064758301
Test Loss 918.317155556
Epoch 106
Training Loss 332.904296875
Test Loss 869.446124192
Epoch 107
Training Loss 302.511779785
Test Loss 842.497168059
Epoch 108
Training Loss 312.402282715
Test Loss 835.862602928
Epoch 109
Training Loss 304.340332031
Test Loss 823.476175886
Epoch 110
Training Loss 293.532836914
Test Loss 842.379187456
Epoch 111
Training Loss 284.232299805
Test Loss 851.205880611
Epoch 112
Training Loss 302.635772705
Test Loss 831.419921731
Epoch 113
Training Loss 287.677734375
Test Loss 852.004605611
Epoch 114
Training Loss 288.48916626
Test Loss 848.458475761
Epoch 115
Training Loss 296.067626953
Test Loss 862.052675155
Epoch 116
Training Loss 294.322265625
Test Loss 867.810351212
Epoch 117
Training Loss 296.66809082
Test Loss 841.599626192
Epoch 118
Training Loss 282.390258789
Test Loss 827.095639062
Epoch 119
Training Loss 290.414672852
Test Loss 861.079833764
Epoch 120
Training Loss 296.369995117
Test Loss 827.736917356
Epoch 121
Training Loss 289.342041016
Test Loss 832.790890512
Epoch 122
Training Loss 278.9871521
Test Loss 815.914894837
Epoch 123
Training Loss 281.23425293
Test Loss 877.23694425
Epoch 124
Training Loss 275.534057617
Test Loss 843.86510701
Epoch 125
Training Loss 277.393280029
Test Loss 843.198248703
Epoch 126
Training Loss 286.289916992
Test Loss 820.194552815
Epoch 127
Training Loss 277.127593994
Test Loss 817.471191677
Epoch 128
Training Loss 272.529724121
Test Loss 822.600937848
Epoch 129
Training Loss 257.108062744
Test Loss 849.209937136
Epoch 130
Training Loss 264.621612549
Test Loss 813.541775551
Epoch 131
Training Loss 261.226501465
Test Loss 861.479885968
Epoch 132
Training Loss 288.206726074
Test Loss 843.381955227
Epoch 133
Training Loss 289.903381348
Test Loss 813.24473656
Epoch 134
Training Loss 285.297027588
Test Loss 828.865128
Epoch 135
Training Loss 268.821411133
Test Loss 829.608289603
Epoch 136
Training Loss 279.942779541
Test Loss 831.024624241
Epoch 137
Training Loss 275.83605957
Test Loss 822.078132118
Epoch 138
Training Loss 264.302825928
Test Loss 825.540755354
Epoch 139
Training Loss 243.870223999
Test Loss 848.366776828
Epoch 140
Training Loss 268.960449219
Test Loss 812.777131864
Epoch 141
Training Loss 261.88873291
Test Loss 819.871032481
Epoch 142
Training Loss 275.266113281
Test Loss 813.565519594
Epoch 143
Training Loss 255.211029053
Test Loss 859.465233004
Epoch 144
Training Loss 263.491088867
Test Loss 837.677886906
Epoch 145
Training Loss 255.049865723
Test Loss 820.022623909
Epoch 146
Training Loss 266.254394531
Test Loss 814.411172801
Epoch 147
Training Loss 258.089385986
Test Loss 822.94178925
Epoch 148
Training Loss 247.548751831
Test Loss 800.747191412
Epoch 149
Training Loss 262.337280273
Test Loss 828.047595451
Epoch 150
Training Loss 232.796798706
Test Loss 800.210200476
Epoch 151
Training Loss 237.380889893
Test Loss 803.022728047
Epoch 152
Training Loss 246.108093262
Test Loss 806.605673113
Epoch 153
Training Loss 247.877563477
Test Loss 817.805042105
Epoch 154
Training Loss 241.479476929
Test Loss 844.088367518
Epoch 155
Training Loss 249.519805908
Test Loss 836.985701344
Epoch 156
Training Loss 240.176895142
Test Loss 891.801380441
Epoch 157
Training Loss 239.048660278
Test Loss 811.159852726
Epoch 158
Training Loss 241.21661377
Test Loss 801.550844344
Epoch 159
Training Loss 239.013916016
Test Loss 804.381709782
Epoch 160
Training Loss 249.363769531
Test Loss 832.939361077
Epoch 161
Training Loss 242.076553345
Test Loss 864.70083068
Epoch 162
Training Loss 232.879745483
Test Loss 792.496012264
Epoch 163
Training Loss 242.004852295
Test Loss 818.373723
Epoch 164
Training Loss 237.015670776
Test Loss 854.240170529
Epoch 165
Training Loss 219.845245361
Test Loss 798.440763681
Epoch 166
Training Loss 242.571594238
Test Loss 818.108118574
Epoch 167
Training Loss 249.719268799
Test Loss 833.591232158
Epoch 168
Training Loss 219.963027954
Test Loss 786.036322141
Epoch 169
Training Loss 235.253265381
Test Loss 789.566750231
Epoch 170
Training Loss 220.219894409
Test Loss 794.643141207
Epoch 171
Training Loss 232.982833862
Test Loss 788.5378138
Epoch 172
Training Loss 226.516815186
Test Loss 797.709214078
Epoch 173
Training Loss 232.667816162
Test Loss 809.185748375
Epoch 174
Training Loss 227.048324585
Test Loss 817.92389983
Epoch 175
Training Loss 227.954589844
Test Loss 790.972602914
Epoch 176
Training Loss 222.377441406
Test Loss 785.772030125
Epoch 177
Training Loss 227.048461914
Test Loss 790.071063046
Epoch 178
Training Loss 225.92590332
Test Loss 788.384262037
Epoch 179
Training Loss 223.027816772
Test Loss 807.245668148
Epoch 180
Training Loss 222.741973877
Test Loss 795.864457401
Epoch 181
Training Loss 230.857269287
Test Loss 786.229837563
Epoch 182
Training Loss 211.766571045
Test Loss 789.9219878
Epoch 183
Training Loss 208.511352539
Test Loss 779.382954715
Epoch 184
Training Loss 224.753753662
Test Loss 780.437398966
Epoch 185
Training Loss 229.512420654
Test Loss 805.62228282
Epoch 186
Training Loss 225.408081055
Test Loss 788.857381176
Epoch 187
Training Loss 221.347229004
Test Loss 794.1865106
Epoch 188
Training Loss 232.751220703
Test Loss 798.082656863
Epoch 189
Training Loss 226.381713867
Test Loss 783.64053544
Epoch 190
Training Loss 209.843017578
Test Loss 803.549845103
Epoch 191
Training Loss 204.196456909
Test Loss 796.692037575
Epoch 192
Training Loss 216.232452393
Test Loss 773.079262827
Epoch 193
Training Loss 209.293518066
Test Loss 771.157493347
Epoch 194
Training Loss 218.672088623
Test Loss 792.537794683
Epoch 195
Training Loss 212.466308594
Test Loss 773.361802499
Epoch 196
Training Loss 208.23387146
Test Loss 840.540255438
Epoch 197
Training Loss 209.448577881
Test Loss 823.097033666
Epoch 198
Training Loss 214.772476196
Test Loss 825.231138244
Epoch 199
Training Loss 215.392333984
Test Loss 787.136984375
Epoch 200
Training Loss 215.176498413
Test Loss 777.418863703
Epoch 201
Training Loss 210.650909424
Test Loss 795.251638374
Epoch 202
Training Loss 216.36366272
Test Loss 783.931346042
Epoch 203
Training Loss 206.592315674
Test Loss 778.172841253
Epoch 204
Training Loss 204.621734619
Test Loss 811.281037299
Epoch 205
Training Loss 192.736541748
Test Loss 775.583921152
Epoch 206
Training Loss 202.977233887
Test Loss 780.488351363
Epoch 207
Training Loss 198.289215088
Test Loss 774.382556561
Epoch 208
Training Loss 197.520690918
Test Loss 783.279881164
Epoch 209
Training Loss 212.328689575
Test Loss 785.686376978
Epoch 210
Training Loss 198.917205811
Test Loss 784.957242469
Epoch 211
Training Loss 209.193237305
Test Loss 784.429852336
Epoch 212
Training Loss 213.734954834
Test Loss 775.452268872
Epoch 213
Training Loss 207.474838257
Test Loss 793.408599665
Epoch 214
Training Loss 193.605697632
Test Loss 772.197136821
Epoch 215
Training Loss 191.862838745
Test Loss 769.997571531
Epoch 216
Training Loss 205.634246826
Test Loss 795.000988063
Epoch 217
Training Loss 201.996673584
Test Loss 788.452439536
Epoch 218
Training Loss 207.561401367
Test Loss 793.188918143
Epoch 219
Training Loss 218.775115967
Test Loss 774.567302274
Epoch 220
Training Loss 202.421356201
Test Loss 785.304304169
Epoch 221
Training Loss 199.221435547
Test Loss 763.017726863
Epoch 222
Training Loss 187.613876343
Test Loss 773.575538427
Epoch 223
Training Loss 206.995895386
Test Loss 762.494952738
Epoch 224
Training Loss 189.309020996
Test Loss 762.64988261
Epoch 225
Training Loss 199.426422119
Test Loss 757.973464423
Epoch 226
Training Loss 182.673706055
Test Loss 768.658641944
Epoch 227
Training Loss 186.442810059
Test Loss 769.420684723
Epoch 228
Training Loss 185.116851807
Test Loss 775.589964426
Epoch 229
Training Loss 182.793685913
Test Loss 768.587582159
Epoch 230
Training Loss 182.151931763
Test Loss 780.827223412
Epoch 231
Training Loss 184.809448242
Test Loss 783.395985142
Epoch 232
Training Loss 176.775177002
Test Loss 765.713035735
Epoch 233
Training Loss 181.063110352
Test Loss 771.109626792
Epoch 234
Training Loss 185.947265625
Test Loss 766.121560616
Epoch 235
Training Loss 193.014160156
Test Loss 771.498019336
Epoch 236
Training Loss 193.942810059
Test Loss 754.139563505
Epoch 237
Training Loss 199.214874268
Test Loss 771.850036979
Epoch 238
Training Loss 208.582061768
Test Loss 758.401013031
Epoch 239
Training Loss 195.583831787
Test Loss 770.787343393
Epoch 240
Training Loss 198.326583862
Test Loss 783.894671908
Epoch 241
Training Loss 188.991851807
Test Loss 771.653505432
Epoch 242
Training Loss 175.947814941
Test Loss 778.154430026
Epoch 243
Training Loss 186.480438232
Test Loss 753.394976816
Epoch 244
Training Loss 174.574798584
Test Loss 761.48082264
Epoch 245
Training Loss 181.425003052
Test Loss 758.140344648
Epoch 246
Training Loss 186.867340088
Test Loss 752.83566414
Epoch 247
Training Loss 182.95475769
Test Loss 760.817351634
Epoch 248
Training Loss 193.146118164
Test Loss 771.404144663
Epoch 249
Training Loss 190.038909912
Test Loss 759.280663057
Epoch 250
Training Loss 179.928497314
Test Loss 771.805279185
Epoch 251
Training Loss 192.938018799
Test Loss 757.763312371
Epoch 252
Training Loss 191.593963623
Test Loss 762.662978996
Epoch 253
Training Loss 199.752319336
Test Loss 774.105965931
Epoch 254
Training Loss 183.485671997
Test Loss 762.110151894
Epoch 255
Training Loss 177.220947266
Test Loss 767.672427396
Epoch 256
Training Loss 166.839172363
Test Loss 758.602297977
Epoch 257
Training Loss 175.893081665
Test Loss 748.860157644
Epoch 258
Training Loss 185.668395996
Test Loss 784.608947519
Epoch 259
Training Loss 168.662414551
Test Loss 750.911279125
Epoch 260
Training Loss 175.693557739
Test Loss 744.571938391
Epoch 261
Training Loss 180.878234863
Test Loss 745.262398967
Epoch 262
Training Loss 169.511520386
Test Loss 767.031126379
Epoch 263
Training Loss 174.356536865
Test Loss 755.074101235
Epoch 264
Training Loss 161.816925049
Test Loss 749.2832003
Epoch 265
Training Loss 170.318618774
Test Loss 747.78752702
Epoch 266
Training Loss 170.403030396
Test Loss 750.020757079
Epoch 267
Training Loss 172.324462891
Test Loss 752.233844407
Epoch 268
Training Loss 191.918457031
Test Loss 750.860204066
Epoch 269
Training Loss 167.12171936
Test Loss 752.544198826
Epoch 270
Training Loss 158.325698853
Test Loss 742.874126015
Epoch 271
Training Loss 168.417663574
Test Loss 758.236102317
Epoch 272
Training Loss 184.695571899
Test Loss 746.270507481
Epoch 273
Training Loss 160.634674072
Test Loss 745.871885475
Epoch 274
Training Loss 165.970184326
Test Loss 749.282331329
Epoch 275
Training Loss 177.578811646
Test Loss 745.268917442
Epoch 276
Training Loss 173.785324097
Test Loss 754.556687034
Epoch 277
Training Loss 171.326202393
Test Loss 759.687585285
Epoch 278
Training Loss 175.466522217
Test Loss 752.607498633
Epoch 279
Training Loss 171.615570068
Test Loss 739.990870125
Epoch 280
Training Loss 159.21182251
Test Loss 743.212693003
Epoch 281
Training Loss 153.817047119
Test Loss 752.970236187
Epoch 282
Training Loss 164.216064453
Test Loss 757.945468762
Epoch 283
Training Loss 170.843215942
Test Loss 752.31864494
Epoch 284
Training Loss 159.545196533
Test Loss 745.754594857
Epoch 285
Training Loss 168.769363403
Test Loss 743.001827707
Epoch 286
Training Loss 167.165344238
Test Loss 753.867909894
Epoch 287
Training Loss 159.038619995
Test Loss 748.289168187
Epoch 288
Training Loss 168.41255188
Test Loss 747.582070779
Epoch 289
Training Loss 198.042205811
Test Loss 748.185903004
Epoch 290
Training Loss 183.738464355
Test Loss 756.699105178
Epoch 291
Training Loss 162.354858398
Test Loss 750.450662538
Epoch 292
Training Loss 165.527709961
Test Loss 743.205013386
Epoch 293
Training Loss 155.123458862
Test Loss 742.873032681
Epoch 294
Training Loss 148.000534058
Test Loss 749.049399473
Epoch 295
Training Loss 154.458526611
Test Loss 744.695348016
Epoch 296
Training Loss 164.947174072
Test Loss 753.322835965
Epoch 297
Training Loss 166.021881104
Test Loss 732.81695345
Epoch 298
Training Loss 160.145599365
Test Loss 739.30161809
Epoch 299
Training Loss 171.655914307
Test Loss 746.819698047
Epoch 300
Training Loss 159.025985718
Test Loss 751.487858299
Epoch 301
Training Loss 157.664825439
Test Loss 758.937514115
Epoch 302
Training Loss 171.824356079
Test Loss 768.560682876
Epoch 303
Training Loss 158.652374268
Test Loss 760.342530706
Epoch 304
Training Loss 153.342407227
Test Loss 743.61578951
Epoch 305
Training Loss 150.976516724
Test Loss 751.699699638
Epoch 306
Training Loss 163.208892822
Test Loss 745.558940344
Epoch 307
Training Loss 166.098632812
Test Loss 754.241138973
Epoch 308
Training Loss 175.027664185
Test Loss 733.161533121
Epoch 309
Training Loss 155.69392395
Test Loss 749.836343996
Epoch 310
Training Loss 177.514251709
Test Loss 741.555056327
Epoch 311
Training Loss 172.03175354
Test Loss 739.401904318
Epoch 312
Training Loss 156.821060181
Test Loss 742.54785296
Epoch 313
Training Loss 160.202789307
Test Loss 769.784727358
Epoch 314
Training Loss 158.325622559
Test Loss 786.8763001
Epoch 315
Training Loss 158.935409546
Test Loss 737.982480244
Epoch 316
Training Loss 158.702835083
Test Loss 737.332259942
Epoch 317
Training Loss 159.864044189
Test Loss 741.216237664
Epoch 318
Training Loss 156.513946533
Test Loss 769.252695206
Epoch 319
Training Loss 161.100982666
Test Loss 760.684850122
Epoch 320
Training Loss 160.316711426
Test Loss 745.933203086
Epoch 321
Training Loss 152.683898926
Test Loss 745.213239029
Epoch 322
Training Loss 163.233398438
Test Loss 744.929977398
Epoch 323
Training Loss 153.557006836
Test Loss 769.661201494
Epoch 324
Training Loss 159.754150391
Test Loss 756.188353113
Epoch 325
Training Loss 162.774856567
Test Loss 741.712656339
Epoch 326
Training Loss 151.41444397
Test Loss 737.265290975
Epoch 327
Training Loss 149.40184021
Test Loss 744.12965705
Epoch 328
Training Loss 152.636444092
Test Loss 735.08819389
Epoch 329
Training Loss 163.269775391
Test Loss 734.116497188
Epoch 330
Training Loss 162.640930176
Test Loss 733.402681474
Epoch 331
Training Loss 172.67225647
Test Loss 732.09495719
Epoch 332
Training Loss 167.468994141
Test Loss 737.672953287
Epoch 333
Training Loss 146.708892822
Test Loss 744.024132187
Epoch 334
Training Loss 154.839157104
Test Loss 747.478709918
Epoch 335
Training Loss 160.746612549
Test Loss 753.941913811
Epoch 336
Training Loss 173.92791748
Test Loss 763.680697797
Epoch 337
Training Loss 154.095825195
Test Loss 754.829300463
Epoch 338
Training Loss 163.570388794
Test Loss 745.991357026
Epoch 339
Training Loss 147.859558105
Test Loss 742.091326375
Epoch 340
Training Loss 154.229736328
Test Loss 761.467306152
Epoch 341
Training Loss 146.907073975
Test Loss 743.811542834
Epoch 342
Training Loss 147.174301147
Test Loss 747.378925007
Epoch 343
Training Loss 150.394104004
Test Loss 759.663377609
Epoch 344
Training Loss 156.406768799
Test Loss 732.251070938
Epoch 345
Training Loss 167.356719971
Test Loss 734.230269951
Epoch 346
Training Loss 166.841751099
Test Loss 739.896880606
Epoch 347
Training Loss 153.796798706
Test Loss 748.567713668
Epoch 348
Training Loss 150.343261719
Test Loss 748.390279235
Epoch 349
Training Loss 138.108779907
Test Loss 753.079199421
Epoch 350
Training Loss 145.523193359
Test Loss 743.922458819
Epoch 351
Training Loss 151.106033325
Test Loss 739.957374118
Epoch 352
Training Loss 149.140655518
Test Loss 732.873438043
Epoch 353
Training Loss 153.211349487
Test Loss 731.157892464
Epoch 354
Training Loss 156.630584717
Test Loss 732.263174994
Epoch 355
Training Loss 161.961425781
Test Loss 783.201464162
Epoch 356
Training Loss 156.557540894
Test Loss 735.941419546
Epoch 357
Training Loss 148.918899536
Test Loss 731.241087259
Epoch 358
Training Loss 140.290100098
Test Loss 734.710209197
Epoch 359
Training Loss 145.131286621
Test Loss 738.484401124
Epoch 360
Training Loss 146.039077759
Test Loss 747.575833091
Epoch 361
Training Loss 146.922515869
Test Loss 768.11741156
Epoch 362
Training Loss 144.460510254
Test Loss 736.229682787
Epoch 363
Training Loss 144.187042236
Test Loss 741.02071306
Epoch 364
Training Loss 146.844680786
Test Loss 749.213332723
Epoch 365
Training Loss 143.746337891
Test Loss 745.305103221
Epoch 366
Training Loss 139.066741943
Test Loss 738.718733825
Epoch 367
Training Loss 142.013122559
Test Loss 745.089644344
Epoch 368
Training Loss 138.149703979
Test Loss 730.214476136
Epoch 369
Training Loss 134.617095947
Test Loss 735.334061597
Epoch 370
Training Loss 148.361190796
Test Loss 750.115326897
Epoch 371
Training Loss 137.710739136
Test Loss 726.784814777
Epoch 372
Training Loss 136.323440552
Test Loss 739.434965473
Epoch 373
Training Loss 142.222900391
Test Loss 733.77640302
Epoch 374
Training Loss 140.399780273
Test Loss 734.576896578
Epoch 375
Training Loss 149.02230835
Test Loss 746.122829588
Epoch 376
Training Loss 144.324371338
Test Loss 731.552204056
Epoch 377
Training Loss 145.271820068
Test Loss 735.699500154
Epoch 378
Training Loss 159.795806885
Test Loss 744.159522646
Epoch 379
Training Loss 152.502349854
Test Loss 739.384609272
Epoch 380
Training Loss 133.4974823
Test Loss 760.19047991
Epoch 381
Training Loss 134.712219238
Test Loss 748.265146425
Epoch 382
Training Loss 132.719726562
Test Loss 742.516881152
Epoch 383
Training Loss 136.107696533
Test Loss 746.58003342
Epoch 384
Training Loss 140.334716797
Test Loss 736.540807687
Epoch 385
Training Loss 146.36605835
Test Loss 744.14252413
Epoch 386
Training Loss 142.40713501
Test Loss 734.650623543
Epoch 387
Training Loss 138.693557739
Test Loss 730.6484946
Epoch 388
Training Loss 152.774383545
Test Loss 736.537655784
Epoch 389
Training Loss 164.441436768
Test Loss 730.366686489
Epoch 390
Training Loss 150.39352417
Test Loss 761.609370442
Epoch 391
Training Loss 144.420150757
Test Loss 785.312060691
Epoch 392
Training Loss 141.081222534
Test Loss 760.166881672
Epoch 393
Training Loss 149.302856445
Test Loss 749.490430121
Epoch 394
Training Loss 142.729202271
Test Loss 738.633180688
Epoch 395
Training Loss 136.672164917
Test Loss 749.542487314
Epoch 396
Training Loss 131.793457031
Test Loss 749.235130236
Epoch 397
Training Loss 133.971405029
Test Loss 741.724299072
Epoch 398
Training Loss 147.195343018
Test Loss 753.092008004
Epoch 399
Training Loss 140.228088379
Test Loss 735.342279919
Epoch 400
Training Loss 126.983215332
Test Loss 736.481223972
Epoch 401
Training Loss 132.225814819
Test Loss 750.455750495
Epoch 402
Training Loss 133.75213623
Test Loss 742.407182244
Epoch 403
Training Loss 143.63923645
Test Loss 741.073493987
Epoch 404
Training Loss 139.337417603
Test Loss 753.379847157
Epoch 405
Training Loss 141.635375977
Test Loss 734.02203897
Epoch 406
Training Loss 143.214416504
Test Loss 735.846225586
Epoch 407
Training Loss 153.838134766
Test Loss 736.795231749
Epoch 408
Training Loss 162.342056274
Test Loss 748.399098563
Epoch 409
Training Loss 144.116378784
Test Loss 765.087918271
Epoch 410
Training Loss 139.745269775
Test Loss 743.357313066
Epoch 411
Training Loss 134.153259277
Test Loss 734.736907333
Epoch 412
Training Loss 126.994766235
Test Loss 734.358279119
Epoch 413
Training Loss 137.010848999
Test Loss 738.183467302
Epoch 414
Training Loss 132.419570923
Test Loss 749.787186591
Epoch 415
Training Loss 136.071487427
Test Loss 746.344242175
Epoch 416
Training Loss 131.371887207
Test Loss 737.736816857
Epoch 417
Training Loss 131.623962402
Test Loss 739.974870357
Epoch 418
Training Loss 131.239105225
Test Loss 735.820165505
Epoch 419
Training Loss 136.364990234
Test Loss 735.476269737
Epoch 420
Training Loss 142.983627319
Test Loss 743.179203858
Epoch 421
Training Loss 132.538879395
Test Loss 729.17028314
Epoch 422
Training Loss 136.374710083
Test Loss 722.361390118
Epoch 423
Training Loss 120.718696594
Test Loss 727.361126077
Epoch 424
Training Loss 135.127746582
Test Loss 741.227451528
Epoch 425
Training Loss 129.894866943
Test Loss 733.628838667
Epoch 426
Training Loss 132.067764282
Test Loss 736.526472955
Epoch 427
Training Loss 133.319656372
Test Loss 740.188643699
Epoch 428
Training Loss 143.88432312
Test Loss 772.226546721
Epoch 429
Training Loss 142.88293457
Test Loss 747.877601351
Epoch 430
Training Loss 141.116287231
Test Loss 751.989441993
Epoch 431
Training Loss 141.876190186
Test Loss 765.454746319
Epoch 432
Training Loss 137.417129517
Test Loss 754.166232648
Epoch 433
Training Loss 139.109039307
Test Loss 738.127781672
Epoch 434
Training Loss 127.542472839
Test Loss 743.333760329
Epoch 435
Training Loss 125.146446228
Test Loss 749.078491405
Epoch 436
Training Loss 127.727264404
Test Loss 736.928866833
Epoch 437
Training Loss 133.791824341
Test Loss 742.176651501
Epoch 438
Training Loss 133.401321411
Test Loss 749.46479369
Epoch 439
Training Loss 147.640075684
Test Loss 754.03542344
Epoch 440
Training Loss 144.910705566
Test Loss 741.842368364
Epoch 441
Training Loss 146.186065674
Test Loss 771.840462776
Epoch 442
Training Loss 131.728515625
Test Loss 764.120035969
Epoch 443
Training Loss 139.581848145
Test Loss 729.653675101
Epoch 444
Training Loss 129.995742798
Test Loss 733.566056947
Epoch 445
Training Loss 133.26574707
Test Loss 741.407475208
Epoch 446
Training Loss 128.743728638
Test Loss 743.643148152
Epoch 447
Training Loss 133.018951416
Test Loss 740.295047207
Epoch 448
Training Loss 133.480316162
Test Loss 739.362901542
Epoch 449
Training Loss 133.852600098
Test Loss 726.946669496
Epoch 450
Training Loss 125.754364014
Test Loss 750.672691321
Epoch 451
Training Loss 129.804718018
Test Loss 750.419778563
Epoch 452
Training Loss 126.904182434
Test Loss 736.351958653
Epoch 453
Training Loss 123.339874268
Test Loss 727.545163045
Epoch 454
Training Loss 133.155761719
Test Loss 736.802196169
Epoch 455
Training Loss 126.18196106
Test Loss 731.964043834
Epoch 456
Training Loss 126.794677734
Test Loss 760.044028115
Epoch 457
Training Loss 130.479263306
Test Loss 751.659144593
Epoch 458
Training Loss 138.999084473
Test Loss 729.375128043
Epoch 459
Training Loss 133.782989502
Test Loss 766.383686428
Epoch 460
Training Loss 116.99987793
Test Loss 731.737069124
Epoch 461
Training Loss 123.738380432
Test Loss 737.977760644
Epoch 462
Training Loss 122.799705505
Test Loss 740.737851612
Epoch 463
Training Loss 123.044158936
Test Loss 742.017291436
Epoch 464
Training Loss 127.207626343
Test Loss 748.668064393
Epoch 465
Training Loss 121.635292053
Test Loss 732.52058749
Epoch 466
Training Loss 119.288024902
Test Loss 733.453298877
Epoch 467
Training Loss 122.499176025
Test Loss 755.045122053
Epoch 468
Training Loss 125.573394775
Test Loss 740.759503004
Epoch 469
Training Loss 126.983428955
Test Loss 736.138918656
Epoch 470
Training Loss 122.779396057
Test Loss 743.524444624
Epoch 471
Training Loss 123.784240723
Test Loss 739.361750279
Epoch 472
Training Loss 120.093139648
Test Loss 768.297801147
Epoch 473
Training Loss 117.761665344
Test Loss 745.878097859
Epoch 474
Training Loss 118.153381348
Test Loss 746.347712014
Epoch 475
Training Loss 126.13180542
Test Loss 743.966660382
Epoch 476
Training Loss 135.050170898
Test Loss 724.511693512
Epoch 477
Training Loss 130.624038696
Test Loss 741.122201336
Epoch 478
Training Loss 130.60848999
Test Loss 754.47159567
Epoch 479
Training Loss 118.813980103
Test Loss 736.760413088
Epoch 480
Training Loss 136.830215454
Test Loss 759.713133332
Epoch 481
Training Loss 122.388206482
Test Loss 750.038497044
Epoch 482
Training Loss 113.633842468
Test Loss 737.900539182
Epoch 483
Training Loss 112.603179932
Test Loss 734.768632197
Epoch 484
Training Loss 113.20980835
Test Loss 740.087003108
Epoch 485
Training Loss 110.037826538
Test Loss 730.076317196
Epoch 486
Training Loss 125.802947998
Test Loss 736.352596539
Epoch 487
Training Loss 120.016044617
Test Loss 748.938798757
Epoch 488
Training Loss 130.986160278
Test Loss 728.28706915
Epoch 489
Training Loss 121.173080444
Test Loss 727.696786581
Epoch 490
Training Loss 119.55291748
Test Loss 739.543840535
Epoch 491
Training Loss 117.25100708
Test Loss 741.531439141
Epoch 492
Training Loss 124.807983398
Test Loss 733.695566271
Epoch 493
Training Loss 112.388687134
Test Loss 722.577300601
Epoch 494
Training Loss 115.831932068
Test Loss 749.995121642
Epoch 495
Training Loss 122.418151855
Test Loss 740.308087821
Epoch 496
Training Loss 119.461112976
Test Loss 738.950984427
Epoch 497
Training Loss 112.657531738
Test Loss 726.786725965
Epoch 498
Training Loss 113.026008606
Test Loss 734.346960987
Epoch 499
Training Loss 109.3306427
Test Loss 741.62549328
Epoch 500
Training Loss 114.234848022
Test Loss 729.80876341
Epoch 501
Training Loss 119.889411926
Test Loss 722.764542181
Epoch 502
Training Loss 128.072097778
Test Loss 732.279008401
Epoch 503
Training Loss 124.045631409
Test Loss 730.743105412
Epoch 504
Training Loss 129.219299316
Test Loss 739.206727725
Epoch 505
Training Loss 116.790435791
Test Loss 737.523128068
Epoch 506
Training Loss 123.770095825
Test Loss 741.042418867
Epoch 507
Training Loss 120.380706787
Test Loss 753.729682389
Epoch 508
Training Loss 117.621688843
Test Loss 748.764502324
Epoch 509
Training Loss 128.378158569
Test Loss 736.843808361
Epoch 510
Training Loss 143.532363892
Test Loss 724.614662958
Epoch 511
Training Loss 119.554191589
Test Loss 725.198067484
Epoch 512
Training Loss 122.705245972
Test Loss 731.919992279
Epoch 513
Training Loss 114.368972778
Test Loss 739.732071747
Epoch 514
Training Loss 116.542068481
Test Loss 740.492011614
Epoch 515
Training Loss 112.026931763
Test Loss 743.369295788
Epoch 516
Training Loss 125.258110046
Test Loss 779.76246077
Epoch 517
Training Loss 137.584320068
Test Loss 740.641021909
Epoch 518
Training Loss 127.891197205
Test Loss 748.992119661
Epoch 519
Training Loss 116.527297974
Test Loss 734.160368059
Epoch 520
Training Loss 124.028610229
Test Loss 731.248375456
Epoch 521
Training Loss 126.584106445
Test Loss 731.055899389
Epoch 522
Training Loss 117.435142517
Test Loss 735.645729649
Epoch 523
Training Loss 116.98513031
Test Loss 734.40360968
Epoch 524
Training Loss 115.63180542
Test Loss 748.029637093
Epoch 525
Training Loss 116.554138184
Test Loss 724.262738807
Epoch 526
Training Loss 114.934425354
Test Loss 730.196507333
Epoch 527
Training Loss 113.30758667
Test Loss 735.790750336
Epoch 528
Training Loss 122.505142212
Test Loss 738.093151793
Epoch 529
Training Loss 128.814498901
Test Loss 747.59203951
Epoch 530
Training Loss 127.040893555
Test Loss 746.841858777
Epoch 531
Training Loss 116.015106201
Test Loss 771.601293761
Epoch 532
Training Loss 120.293548584
Test Loss 752.992063251
Epoch 533
Training Loss 132.286758423
Test Loss 735.769230909
Epoch 534
Training Loss 132.068588257
Test Loss 727.516940089
Epoch 535
Training Loss 124.658927917
Test Loss 734.43785647
Epoch 536
Training Loss 116.678192139
Test Loss 733.845567578
Epoch 537
Training Loss 115.084747314
Test Loss 753.062035723
Epoch 538
Training Loss 119.710205078
Test Loss 735.441108993
Epoch 539
Training Loss 114.821205139
Test Loss 725.559823824
Epoch 540
Training Loss 110.152618408
Test Loss 728.338710545
Epoch 541
Training Loss 105.706741333
Test Loss 727.880351715
Epoch 542
Training Loss 105.505226135
Test Loss 736.756639958
Epoch 543
Training Loss 108.447219849
Test Loss 736.319974959
Epoch 544
Training Loss 105.979026794
Test Loss 728.785763322
Epoch 545
Training Loss 113.320701599
Test Loss 742.281923911
Epoch 546
Training Loss 103.963897705
Test Loss 748.42683261
Epoch 547
Training Loss 113.297958374
Test Loss 725.537107148
Epoch 548
Training Loss 117.824493408
Test Loss 731.562116128
Epoch 549
Training Loss 122.150604248
Test Loss 730.18661129
Epoch 550
Training Loss 115.216423035
Test Loss 726.176418669
Epoch 551
Training Loss 114.225082397
Test Loss 728.233831136
Epoch 552
Training Loss 104.107673645
Test Loss 733.331817517
Epoch 553
Training Loss 113.564910889
Test Loss 737.353863285
Epoch 554
Training Loss 115.102813721
Test Loss 734.701310346
Epoch 555
Training Loss 101.693634033
Test Loss 727.292992322
Epoch 556
Training Loss 103.570144653
Test Loss 727.13322285
Epoch 557
Training Loss 107.768127441
Test Loss 733.475149967
Epoch 558
Training Loss 115.783424377
Test Loss 734.319073693
Epoch 559
Training Loss 120.983673096
Test Loss 728.080356168
Epoch 560
Training Loss 114.151847839
Test Loss 731.688440889
Epoch 561
Training Loss 112.232086182
Test Loss 734.242616706
Epoch 562
Training Loss 112.740936279
Test Loss 735.370257263
Epoch 563
Training Loss 116.028381348
Test Loss 737.097395745
Epoch 564
Training Loss 125.919570923
Test Loss 728.989859623
Epoch 565
Training Loss 112.54246521
Test Loss 721.814053256
Epoch 566
Training Loss 99.9201812744
Test Loss 729.192037764
Epoch 567
Training Loss 115.850418091
Test Loss 735.337120664
Epoch 568
Training Loss 111.992866516
Test Loss 734.548501499
Epoch 569
Training Loss 103.952903748
Test Loss 739.14935429
Epoch 570
Training Loss 118.170593262
Test Loss 738.68894036
Epoch 571
Training Loss 119.94052124
Test Loss 736.466420225
Epoch 572
Training Loss 115.645950317
Test Loss 726.679469492
Epoch 573
Training Loss 102.454086304
Test Loss 731.926890053
Epoch 574
Training Loss 109.135894775
Test Loss 735.939150646
Epoch 575
Training Loss 107.856788635
Test Loss 732.939950892
Epoch 576
Training Loss 104.495819092
Test Loss 732.135485897
Epoch 577
Training Loss 99.5219726562
Test Loss 730.670655472
Epoch 578
Training Loss 105.225791931
Test Loss 745.745892834
Epoch 579
Training Loss 108.167495728
Test Loss 745.089105235
Epoch 580
Training Loss 98.4728546143
Test Loss 727.728199554
Epoch 581
Training Loss 103.609336853
Test Loss 729.598789482
Epoch 582
Training Loss 108.330986023
Test Loss 734.299640919
Epoch 583
Training Loss 115.18913269
Test Loss 732.835633784
Epoch 584
Training Loss 107.430610657
Test Loss 729.101061657
Epoch 585
Training Loss 110.794647217
Test Loss 737.488853965
Epoch 586
Training Loss 108.870880127
Test Loss 746.883949825
Epoch 587
Training Loss 120.604766846
Test Loss 736.332763382
Epoch 588
Training Loss 116.455932617
Test Loss 732.207046173
Epoch 589
Training Loss 105.432571411
Test Loss 729.22282974
Epoch 590
Training Loss 122.709960938
Test Loss 729.425542971
Epoch 591
Training Loss 111.459861755
Test Loss 733.16494497
Epoch 592
Training Loss 120.915748596
Test Loss 735.223708346
Epoch 593
Training Loss 111.866958618
Test Loss 737.776753099
Epoch 594
Training Loss 112.235671997
Test Loss 741.369990814
Epoch 595
Training Loss 118.252952576
Test Loss 734.146678908
Epoch 596
Training Loss 117.186340332
Test Loss 752.137834744
Epoch 597
Training Loss 115.91583252
Test Loss 750.61191421
Epoch 598
Training Loss 120.296524048
Test Loss 755.35384084
Epoch 599
Training Loss 119.023956299
Test Loss 743.944679403
Epoch 600
Training Loss 117.82144928
Test Loss 735.979191575
Epoch 601
Training Loss 125.682510376
Test Loss 734.330475497
Epoch 602
Training Loss 109.818710327
Test Loss 733.482064837
Epoch 603
Training Loss 106.997817993
Test Loss 740.722852526
Epoch 604
Training Loss 108.710357666
Test Loss 737.473320461
Epoch 605
Training Loss 101.99659729
Test Loss 745.171317101
Epoch 606
Training Loss 103.460174561
Test Loss 736.30022618
Epoch 607
Training Loss 110.929870605
Test Loss 743.128440334
Epoch 608
Training Loss 105.133728027
Test Loss 741.519931054
Epoch 609
Training Loss 110.548446655
Test Loss 737.581461964
Epoch 610
Training Loss 111.081306458
Test Loss 739.579289931
Epoch 611
Training Loss 116.332763672
Test Loss 738.547862256
Epoch 612
Training Loss 109.43711853
Test Loss 736.880447259
Epoch 613
Training Loss 114.830291748
Test Loss 724.319868785
Epoch 614
Training Loss 116.263702393
Test Loss 727.830592388
Epoch 615
Training Loss 126.481460571
Test Loss 728.409328412
Epoch 616
Training Loss 115.754249573
Test Loss 741.186297167
Epoch 617
Training Loss 107.069976807
Test Loss 744.520886609
Epoch 618
Training Loss 104.527076721
Test Loss 742.260140342
Epoch 619
Training Loss 102.685775757
Test Loss 733.096724889
Epoch 620
Training Loss 106.763442993
Test Loss 745.038778131
Epoch 621
Training Loss 99.629119873
Test Loss 741.26217291
Epoch 622
Training Loss 102.234474182
Test Loss 745.763419316
Epoch 623
Training Loss 103.97517395
Test Loss 731.161224367
Epoch 624
Training Loss 105.713798523
Test Loss 729.934045623
Epoch 625
Training Loss 119.704277039
Test Loss 728.214712035
Epoch 626
Training Loss 112.330566406
Test Loss 722.796244273
Epoch 627
Training Loss 106.912284851
Test Loss 728.073945606
Epoch 628
Training Loss 104.639274597
Test Loss 736.028841305
Epoch 629
Training Loss 105.790893555
Test Loss 735.037821221
Epoch 630
Training Loss 110.211593628
Test Loss 737.138221686
Epoch 631
Training Loss 103.692825317
Test Loss 727.117677721
Epoch 632
Training Loss 107.919441223
Test Loss 725.046137855
Epoch 633
Training Loss 108.067710876
Test Loss 722.098472339
Epoch 634
Training Loss 99.6924667358
Test Loss 723.041941479
Epoch 635
Training Loss 106.071456909
Test Loss 724.529110886
Epoch 636
Training Loss 104.018287659
Test Loss 729.841412785
Epoch 637
Training Loss 103.250213623
Test Loss 732.721600253
Epoch 638
Training Loss 107.155349731
Test Loss 749.542394886
Epoch 639
Training Loss 105.768798828
Test Loss 746.835101807
Epoch 640
Training Loss 104.543823242
Test Loss 730.035153021
Epoch 641
Training Loss 109.89365387
Test Loss 734.974838141
Epoch 642
Training Loss 103.781799316
Test Loss 742.433443289
Epoch 643
Training Loss 101.146728516
Test Loss 734.960841115
Epoch 644
Training Loss 111.689369202
Test Loss 724.163005921
Epoch 645
Training Loss 100.754844666
Test Loss 737.261195272
Epoch 646
Training Loss 105.922401428
Test Loss 725.575738982
Epoch 647
Training Loss 99.2928466797
Test Loss 724.33341549
Epoch 648
Training Loss 111.050689697
Test Loss 724.635942431
Epoch 649
Training Loss 113.629699707
Test Loss 729.779618428
Epoch 650
Training Loss 103.83404541
Test Loss 720.955404353
Epoch 651
Training Loss 97.5153656006
Test Loss 729.179789785
Epoch 652
Training Loss 103.078529358
Test Loss 730.122048257
Epoch 653
Training Loss 98.3112564087
Test Loss 727.537834731
